; generated by Slic3r 1.3.0 on 2020-06-25 at 12:22:41

; external perimeters extrusion width = 0.50mm (3.35mm^3/s)
; perimeters extrusion width = 0.50mm (3.35mm^3/s)
; infill extrusion width = 0.50mm (4.46mm^3/s)
; solid infill extrusion width = 0.50mm (3.35mm^3/s)
; top infill extrusion width = 0.50mm (3.35mm^3/s)

M107
M104 S215 ; set temperature
T0

; Filament gcode

M109 S215 ; set temperature and wait for it to be reached
G21 ; set units to millimeters
G90 ; use absolute coordinates
M83 ; use relative distances for extrusion
G1 E-3.50000 F2400.00000
G1 Z0.250 F9000.000
G1 X52.596 Y53.353 F9000.000
G1 E3.50000 F2400.00000
G1 F1200
G1 X54.344 Y51.904 E0.17611
G1 X57.550 Y51.057 E0.25720
G1 X82.450 Y51.057 E1.93159
G1 X84.685 Y51.454 E0.17611
G1 X86.647 Y52.596 E0.17611
G1 X88.096 Y54.344 E0.17611
G1 X88.943 Y57.550 E0.25720
G1 X88.943 Y82.450 E1.93159
G1 X88.546 Y84.685 E0.17611
G1 X87.404 Y86.647 E0.17611
G1 X85.656 Y88.096 E0.17611
G1 X82.450 Y88.943 E0.25720
G1 X57.550 Y88.943 E1.93159
G1 X55.315 Y88.546 E0.17611
G1 X53.353 Y87.404 E0.17611
G1 X51.904 Y85.656 E0.17611
G1 X51.057 Y82.450 E0.25720
G1 X51.057 Y57.550 E1.93159
G1 X51.454 Y55.315 E0.17611
G1 X52.559 Y53.417 E0.17030
G1 X53.335 Y53.644 F9000.000
G1 F1200
G1 X55.052 Y52.375 E0.16560
G1 X57.550 Y51.804 E0.19882
G1 X82.450 Y51.804 E1.93159
G1 X84.548 Y52.200 E0.16560
G1 X86.356 Y53.335 E0.16560
G1 X87.625 Y55.052 E0.16560
G1 X88.196 Y57.550 E0.19882
G1 X88.196 Y82.450 E1.93159
G1 X87.800 Y84.548 E0.16560
G1 X86.665 Y86.356 E0.16560
G1 X84.948 Y87.625 E0.16560
G1 X82.450 Y88.196 E0.19882
G1 X57.550 Y88.196 E1.93159
G1 X55.452 Y87.800 E0.16560
G1 X53.644 Y86.665 E0.16560
G1 X52.375 Y84.948 E0.16560
G1 X51.804 Y82.450 E0.19882
G1 X51.804 Y57.550 E1.93159
G1 X52.200 Y55.452 E0.16560
G1 X53.295 Y53.708 E0.15978
G1 E-3.50000 F2400.00000
G1 X81.519 Y79.501 F9000.000
G1 E3.50000 F2400.00000
G1 F900
G1 X79.894 Y79.501 E0.12600
G1 X79.893 Y76.183 E0.25741
G1 X79.863 Y75.839 E0.02679
G1 X79.796 Y75.616 E0.01808
G1 X79.527 Y75.584 E0.02098
G1 X79.341 Y75.615 E0.01461
G1 X79.222 Y75.686 E0.01078
G1 X79.119 Y75.812 E0.01263
G1 X79.022 Y76.068 E0.02121
G1 X78.977 Y76.428 E0.02814
G1 X78.975 Y79.501 E0.23842
G1 X77.351 Y79.501 E0.12598
G1 X77.351 Y76.275 E0.25027
G1 X77.319 Y75.836 E0.03414
G1 X77.253 Y75.616 E0.01785
G1 X76.985 Y75.584 E0.02095
G1 X76.815 Y75.613 E0.01335
G1 X76.692 Y75.682 E0.01094
G1 X76.578 Y75.818 E0.01374
G1 X76.480 Y76.073 E0.02121
G1 X76.434 Y76.429 E0.02787
G1 X76.432 Y79.501 E0.23832
G1 X73.115 Y79.501 E0.25731
G1 X73.114 Y76.183 E0.25741
G1 X73.084 Y75.839 E0.02679
G1 X73.017 Y75.616 E0.01808
G1 X72.748 Y75.584 E0.02098
G1 X72.570 Y75.613 E0.01401
G1 X72.448 Y75.681 E0.01077
G1 X72.340 Y75.812 E0.01324
G1 X72.243 Y76.068 E0.02121
G1 X72.198 Y76.428 E0.02814
G1 X72.196 Y79.501 E0.23842
G1 X70.572 Y79.501 E0.12597
G1 X70.571 Y76.183 E0.25741
G1 X70.541 Y75.839 E0.02679
G1 X70.474 Y75.616 E0.01808
G1 X70.206 Y75.584 E0.02095
G1 X70.028 Y75.615 E0.01394
G1 X69.908 Y75.687 E0.01093
G1 X69.799 Y75.818 E0.01315
G1 X69.701 Y76.073 E0.02120
G1 X69.655 Y76.429 E0.02787
G1 X69.653 Y79.501 E0.23832
G1 X68.025 Y79.501 E0.12629
G1 X68.025 Y78.457 E0.08104
G1 X67.686 Y78.371 E0.02708
G1 X67.548 Y78.629 E0.02269
G1 X67.224 Y79.015 E0.03910
G1 X66.825 Y79.309 E0.03843
G1 X66.370 Y79.494 E0.03808
G1 X66.029 Y79.562 E0.02699
G1 X65.678 Y79.583 E0.02725
G1 X65.327 Y79.562 E0.02732
G1 X64.927 Y79.480 E0.03167
G1 X64.532 Y79.307 E0.03344
G1 X64.153 Y79.033 E0.03630
G1 X63.523 Y78.280 E0.07617
G1 X63.523 Y79.501 E0.09477
G1 X59.030 Y79.501 E0.34852
G1 X59.030 Y77.979 E0.11811
G1 X60.491 Y77.979 E0.11331
G1 X60.491 Y74.892 E0.23943
G1 X59.197 Y75.816 E0.12332
G1 X59.197 Y74.013 E0.13982
G1 X60.862 Y72.868 E0.15677
G1 X62.127 Y72.868 E0.09815
G1 X62.127 Y77.979 E0.39643
G1 X63.512 Y77.979 E0.10740
G1 X63.404 Y77.648 E0.02696
G1 X63.297 Y77.066 E0.04592
G1 X63.259 Y76.637 E0.03342
G1 X63.247 Y76.177 E0.03566
G1 X63.295 Y75.292 E0.06875
G1 X63.399 Y74.700 E0.04669
G1 X63.565 Y74.176 E0.04263
G1 X63.802 Y73.718 E0.03998
G1 X64.124 Y73.336 E0.03876
G1 X64.528 Y73.047 E0.03855
G1 X64.992 Y72.868 E0.03859
G1 X65.341 Y72.803 E0.02751
G1 X65.682 Y72.783 E0.02649
G1 X66.229 Y72.829 E0.04256
G1 X66.711 Y72.979 E0.03919
G1 X67.126 Y73.231 E0.03771
G1 X67.373 Y73.465 E0.02635
G1 X67.579 Y73.736 E0.02644
G1 X67.818 Y74.199 E0.04042
G1 X69.572 Y74.199 E0.13608
G1 X69.577 Y74.299 E0.00775
G1 X69.996 Y74.166 E0.03408
G1 X70.309 Y74.122 E0.02456
G1 X70.653 Y74.122 E0.02668
G1 X70.998 Y74.171 E0.02697
G1 X71.377 Y74.307 E0.03124
G1 X71.744 Y74.559 E0.03457
G1 X71.998 Y74.377 E0.02425
G1 X72.213 Y74.268 E0.01870
G1 X72.441 Y74.189 E0.01873
G1 X72.684 Y74.139 E0.01923
G1 X73.008 Y74.116 E0.02516
G1 X73.345 Y74.146 E0.02625
G1 X73.345 Y73.809 E0.02615
G1 X74.256 Y74.555 E0.09135
G1 X74.481 Y74.825 E0.02726
G1 X74.780 Y74.710 E0.02482
G1 X74.761 Y74.199 E0.03971
G1 X76.352 Y74.199 E0.12338
G1 X76.356 Y74.299 E0.00774
G1 X76.775 Y74.166 E0.03406
G1 X77.089 Y74.122 E0.02456
G1 X77.432 Y74.122 E0.02668
G1 X77.777 Y74.171 E0.02698
G1 X78.156 Y74.307 E0.03123
G1 X78.523 Y74.559 E0.03458
G1 X78.777 Y74.377 E0.02425
G1 X78.992 Y74.268 E0.01869
G1 X79.220 Y74.189 E0.01873
G1 X79.463 Y74.139 E0.01923
G1 X79.777 Y74.117 E0.02442
G1 X80.038 Y74.128 E0.02027
G1 X80.372 Y74.185 E0.02625
G1 X80.676 Y74.298 E0.02517
G1 X80.870 Y74.416 E0.01761
G1 X81.037 Y74.558 E0.01705
G1 X81.179 Y74.728 E0.01711
G1 X81.296 Y74.925 E0.01781
G1 X81.414 Y75.237 E0.02591
G1 X81.486 Y75.591 E0.02796
G1 X81.516 Y75.976 E0.02999
G1 X81.518 Y79.426 E0.26765
G1 X81.520 Y80.001 F9000.000
G1 E-3.50000 F2400.00000
G1 X59.744 Y77.232 F9000.000
G1 E3.50000 F2400.00000
G1 F900
G1 X59.033 Y77.232 E0.05520
G1 X58.933 Y76.921 E0.02535
G1 X59.744 Y76.342 E0.07732
G1 X59.744 Y77.157 E0.06325
G1 E-3.50000 F2400.00000
G1 X67.279 Y80.248 F9000.000
G1 E3.50000 F2400.00000
G1 F900
G1 X81.304 Y80.248 E1.08796
G1 X81.304 Y81.304 E0.08192
G1 X58.696 Y81.304 E1.75374
G1 X58.696 Y80.248 E0.08192
G1 X64.269 Y80.248 E0.43230
G1 X64.269 Y80.007 E0.01867
G1 X64.700 Y80.195 E0.03648
G1 X65.229 Y80.304 E0.04188
G1 X65.679 Y80.331 E0.03495
G1 X66.125 Y80.304 E0.03471
G1 X66.586 Y80.212 E0.03646
G1 X67.279 Y79.929 E0.05805
G1 X67.279 Y80.173 E0.01888
G1 E-3.50000 F2400.00000
G1 X63.620 Y71.376 F9000.000
G1 E3.50000 F2400.00000
G1 F900
G1 X60.398 Y71.376 E0.24991
G1 X59.443 Y72.033 E0.08997
G1 X59.443 Y59.443 E0.97667
G1 X80.557 Y59.443 E1.63794
G1 X80.557 Y72.702 E1.02859
G1 X80.195 Y72.640 E0.02853
G1 X79.754 Y72.622 E0.03421
G1 X79.259 Y72.657 E0.03850
G1 X78.825 Y72.747 E0.03436
G1 X78.520 Y72.852 E0.02505
G1 X78.137 Y72.714 E0.03157
G1 X77.538 Y72.630 E0.04692
G1 X76.984 Y72.629 E0.04296
G1 X76.440 Y72.706 E0.04264
G1 X74.354 Y72.706 E0.16183
G1 X71.852 Y70.657 E0.25089
G1 X71.852 Y72.892 E0.17337
G1 X71.358 Y72.714 E0.04073
G1 X70.759 Y72.630 E0.04691
G1 X70.205 Y72.629 E0.04295
G1 X69.661 Y72.706 E0.04265
G1 X68.672 Y72.706 E0.07674
G1 X68.488 Y72.464 E0.02358
G1 X68.038 Y72.038 E0.04808
G1 X67.329 Y71.608 E0.06428
G1 X66.516 Y71.355 E0.06608
G1 X65.700 Y71.286 E0.06351
G1 X65.159 Y71.318 E0.04203
G1 X64.583 Y71.426 E0.04550
G1 X63.620 Y71.799 E0.08008
G1 X63.620 Y71.451 E0.02698
G1 X62.874 Y72.122 F9000.000
G1 F900
G1 X60.630 Y72.122 E0.17403
G1 X58.696 Y73.452 E0.18206
G1 X58.696 Y58.696 E1.14464
G1 X81.304 Y58.696 E1.75374
G1 X81.304 Y73.736 E1.16669
G1 X80.567 Y73.461 E0.06101
G1 X80.116 Y73.384 E0.03545
G1 X79.766 Y73.370 E0.02724
G1 X79.361 Y73.398 E0.03146
G1 X79.023 Y73.468 E0.02679
G1 X78.700 Y73.579 E0.02652
G1 X78.550 Y73.655 E0.01303
G1 X77.957 Y73.443 E0.04888
G1 X77.485 Y73.376 E0.03695
G1 X77.036 Y73.375 E0.03482
G1 X76.557 Y73.453 E0.03767
G1 X74.087 Y73.453 E0.19159
G1 X72.598 Y72.233 E0.14930
G1 X72.598 Y73.395 E0.09015
G1 X72.244 Y73.468 E0.02809
G1 X71.921 Y73.579 E0.02651
G1 X71.771 Y73.655 E0.01303
G1 X71.178 Y73.443 E0.04889
G1 X70.706 Y73.376 E0.03694
G1 X70.257 Y73.375 E0.03482
G1 X69.778 Y73.453 E0.03768
G1 X68.273 Y73.453 E0.11673
G1 X68.213 Y73.336 E0.01019
G1 X67.930 Y72.964 E0.03620
G1 X67.582 Y72.635 E0.03722
G1 X67.020 Y72.293 E0.05099
G1 X66.372 Y72.092 E0.05263
G1 X65.691 Y72.034 E0.05304
G1 X65.250 Y72.061 E0.03426
G1 X64.787 Y72.147 E0.03651
G1 X64.172 Y72.385 E0.05124
G1 X63.613 Y72.783 E0.05319
G1 X62.874 Y73.664 E0.08924
G1 X62.874 Y72.197 E0.11382
G1 E-3.50000 F2400.00000
G1 X57.950 Y82.050 F9000.000
G1 E3.50000 F2400.00000
G1 F900
G1 X57.950 Y57.950 E1.86953
G1 X82.050 Y57.950 E1.86953
G1 X82.050 Y82.050 E1.86953
G1 X58.025 Y82.050 E1.86371
G1 X58.079 Y81.567 F9000.000
G1 E-3.50000 F2400.00000
G1 X74.772 Y79.101 F9000.000
G1 E3.50000 F2400.00000
G1 F900
G1 X74.757 Y75.626 E0.29346
G1 X74.579 Y75.520 E0.01745
G1 F900
G1 X74.266 Y75.336 E0.02868
G1 E-3.50000 F2400.00000
G1 X68.077 Y76.164 F9000.000
G1 E3.50000 F2400.00000
G1 F900
G1 X68.052 Y77.042 E0.05860
G1 F900
G1 X68.026 Y77.340 E0.02157
G1 F900
G1 X68.002 Y77.602 E0.02170
G1 X67.813 Y77.715 E0.01813
G1 F900
G1 X67.487 Y77.909 E0.02811
G1 X68.077 Y76.164 F9000.000
G1 F900
G1 X68.053 Y75.325 E0.06359
G1 X67.978 Y74.599 E0.05538
G1 E-3.50000 F2400.00000
G1 X65.686 Y78.082 F9000.000
G1 E3.50000 F2400.00000
G1 F900
G1 X65.508 Y78.063 E0.01388
G1 X65.366 Y78.011 E0.01174
G1 X65.238 Y77.908 E0.01273
G1 X65.138 Y77.760 E0.01386
G1 X65.014 Y77.434 E0.02702
G1 X64.946 Y77.102 E0.02633
G1 X64.903 Y76.681 E0.03278
G1 X64.888 Y76.183 E0.03870
G1 X64.902 Y75.669 E0.03984
G1 X64.946 Y75.240 E0.03348
G1 X65.013 Y74.905 E0.02648
G1 X65.133 Y74.588 E0.02630
G1 X65.229 Y74.450 E0.01305
G1 X65.358 Y74.351 E0.01257
G1 X65.508 Y74.299 E0.01234
G1 X65.721 Y74.279 E0.01662
G1 X65.928 Y74.308 E0.01618
G1 X66.056 Y74.368 E0.01100
G1 X66.155 Y74.456 E0.01026
G1 X66.245 Y74.590 E0.01251
G1 X66.363 Y74.912 E0.02665
G1 X66.429 Y75.248 E0.02653
G1 X66.471 Y75.675 E0.03326
G1 X66.485 Y76.182 E0.03938
G1 X66.470 Y76.671 E0.03795
G1 X66.426 Y77.086 E0.03234
G1 X66.358 Y77.418 E0.02627
G1 X66.232 Y77.750 E0.02753
G1 X66.134 Y77.896 E0.01367
G1 X66.022 Y77.997 E0.01169
G1 X65.870 Y78.062 E0.01284
G1 X65.760 Y78.074 E0.00855
G1 X65.598 Y77.926 F9000.000
G1 X65.649 Y77.703 F9000.000
G1 F600
G1 X65.686 Y76.800 E0.06557
G1 F600
G1 X65.687 Y75.357 E0.11530
G1 F600
G1 X65.687 Y75.226 E0.00951
G1 F600
G1 X65.653 Y74.660 E0.03819
G1 E-3.50000 F2400.00000
G1 X63.273 Y73.835 F9000.000
G1 E3.50000 F2400.00000
G1 F600
G1 X63.156 Y74.012 E0.00168
G1 F600
G1 X63.036 Y74.229 E0.00328
G1 F600
G1 X62.917 Y74.446 E0.00575
G1 F600
G1 X62.500 Y75.259 E0.03034
G1 X62.713 Y75.213 F9000.000
G1 F600
G1 X62.687 Y76.162 E0.03675
G1 F600
G1 X62.694 Y76.676 E0.01705
G1 F600
G1 X62.756 Y77.606 E0.03622
G1 E-3.50000 F2400.00000
G1 X62.713 Y75.213 F9000.000
G1 E3.50000 F2400.00000
G1 F600
G1 X62.789 Y74.346 E0.04053
G1 X63.247 Y72.609 F9000.000
G1 F600
G1 X63.339 Y72.407 E0.00201
G1 X63.696 Y72.214 E0.00366
G1 E-3.50000 F2400.00000
G1 X68.338 Y71.474 F9000.000
G1 E3.50000 F2400.00000
G1 F900
G1 X68.414 Y71.521 E0.00707
G1 X68.905 Y71.986 E0.05373
G1 X71.185 Y69.707 E0.25578
G1 X71.185 Y70.787 E0.08567
G1 X69.999 Y71.972 E0.13306
G1 E-3.50000 F2400.00000
G1 X79.732 Y71.957 F9000.000
G1 E3.50000 F2400.00000
G1 F900
G1 X79.890 Y71.798 E0.01778
G1 X79.890 Y70.719 E0.08567
G1 X78.481 Y72.128 E0.15810
G1 X78.446 Y72.140 E0.00296
G1 X78.238 Y72.065 E0.01755
G1 X77.560 Y71.969 E0.05434
G1 X79.890 Y69.639 E0.26152
G1 X79.890 Y68.559 E0.08567
G1 X76.427 Y72.022 E0.38859
G1 X76.308 Y72.039 E0.00955
G1 X75.331 Y72.039 E0.07756
G1 X79.890 Y67.480 E0.51164
G1 X79.890 Y66.400 E0.08567
G1 X74.382 Y71.908 E0.61813
G1 X73.788 Y71.422 E0.06088
G1 X79.890 Y65.320 E0.68473
G1 X79.890 Y64.241 E0.08567
G1 X73.195 Y70.936 E0.75133
G1 X72.601 Y70.450 E0.06088
G1 X79.890 Y63.161 E0.81793
G1 X79.890 Y62.081 E0.08567
G1 X72.008 Y69.964 E0.88453
G1 X71.414 Y69.477 E0.06088
G1 X79.890 Y61.002 E0.95113
G1 X79.890 Y60.110 E0.07077
G1 X79.702 Y60.110 E0.01490
G1 X68.338 Y71.474 E1.27531
G1 X67.666 Y71.066 E0.06236
G1 X78.623 Y60.110 E1.22950
G1 X77.543 Y60.110 E0.08567
G1 X66.867 Y70.786 E1.19806
G1 X66.581 Y70.697 E0.02379
G1 X65.931 Y70.642 E0.05174
G1 X76.463 Y60.110 E1.18195
G1 X75.384 Y60.110 E0.08567
G1 X64.804 Y70.690 E1.18726
G1 X64.287 Y70.788 E0.04173
G1 X64.287 Y70.709 E0.00634
G1 X63.705 Y70.709 E0.04616
G1 X74.304 Y60.110 E1.18936
G1 X73.224 Y60.110 E0.08567
G1 X62.626 Y70.709 E1.18936
G1 X61.546 Y70.709 E0.08567
G1 X72.145 Y60.110 E1.18936
G1 X71.065 Y60.110 E0.08567
G1 X60.466 Y70.709 E1.18936
G1 X60.110 Y70.709 E0.02829
G1 X60.110 Y69.985 E0.05738
G1 X69.985 Y60.110 E1.10821
G1 X68.906 Y60.110 E0.08567
G1 X60.110 Y68.906 E0.98705
G1 X60.110 Y67.826 E0.08567
G1 X67.826 Y60.110 E0.86589
G1 X66.746 Y60.110 E0.08567
G1 X60.110 Y66.746 E0.74473
G1 X60.110 Y65.667 E0.08567
G1 X65.667 Y60.110 E0.62357
G1 X64.587 Y60.110 E0.08567
G1 X60.110 Y64.587 E0.50242
G1 X60.110 Y63.507 E0.08567
G1 X63.507 Y60.110 E0.38126
G1 X62.428 Y60.110 E0.08567
G1 X60.110 Y62.428 E0.26010
G1 X60.110 Y61.348 E0.08567
G1 X61.348 Y60.110 E0.13894
G1 X60.268 Y60.110 E0.08567
G1 X60.110 Y60.268 E0.01777
G1 E-3.50000 F2400.00000
G1 X81.165 Y74.125 F9000.000
G1 E3.50000 F2400.00000
G1 F600
G1 X81.677 Y74.445 E0.00673
G1 E-3.50000 F2400.00000
G1 X79.469 Y76.046 F9000.000
G1 E3.50000 F2400.00000
G1 F600
G1 X79.435 Y76.456 E0.00511
G1 X79.435 Y79.874 E0.04240
G1 X80.930 Y80.776 F9000.000
G1 F600
G1 X66.906 Y80.776 E0.39998
G1 X66.765 Y80.744 E0.00411
G1 X66.375 Y80.784 E0.01118
G1 F600
G1 X65.685 Y80.818 E0.01471
G1 X65.154 Y80.801 E0.01132
G1 F600
G1 X64.742 Y80.759 E0.01101
G1 X64.642 Y80.776 E0.00269
G1 X59.070 Y80.776 E0.14832
G1 X58.490 Y79.874 F9000.000
G1 F600
G1 X58.490 Y77.606 E0.06606
G1 F600
G1 X58.516 Y77.474 E0.00462
G1 X58.573 Y76.719 F9000.000
G1 F600
G1 X58.573 Y73.989 E0.12682
G1 E-3.50000 F2400.00000
G1 X67.308 Y79.469 F9000.000
G1 E3.50000 F2400.00000
G1 F600
G1 X67.652 Y79.256 E0.00484
G1 E-3.50000 F2400.00000
G1 X70.113 Y79.874 F9000.000
G1 E3.50000 F2400.00000
G1 F600
G1 X70.113 Y76.458 E0.04238
G1 X70.148 Y76.054 E0.00503
G1 E-3.50000 F2400.00000
G1 X72.690 Y76.046 F9000.000
G1 E3.50000 F2400.00000
G1 F600
G1 X72.656 Y76.456 E0.00511
G1 X72.656 Y79.874 E0.04240
G1 E-3.50000 F2400.00000
G1 X76.892 Y79.874 F9000.000
G1 E3.50000 F2400.00000
G1 F600
G1 X76.893 Y76.458 E0.04232
G1 X76.924 Y76.063 E0.00492
G1 E-3.50000 F2400.00000
G1 Z0.500 F9000.000
G1 X68.175 Y79.351 F9000.000
G1 E3.50000 F2400.00000
G1 F1800
G1 X68.175 Y77.055 E0.10652
G1 X67.932 Y77.033 E0.01133
G1 X67.824 Y77.608 E0.02714
G1 X67.657 Y78.109 E0.02454
G1 X67.423 Y78.545 E0.02292
G1 X67.121 Y78.905 E0.02183
G1 X66.751 Y79.177 E0.02129
G1 X66.327 Y79.350 E0.02125
G1 X66.010 Y79.413 E0.01500
G1 X65.678 Y79.433 E0.01540
G1 X65.347 Y79.413 E0.01539
G1 X65.031 Y79.350 E0.01497
G1 X64.608 Y79.178 E0.02117
G1 X64.241 Y78.907 E0.02118
G1 X63.943 Y78.547 E0.02168
G1 X63.713 Y78.113 E0.02278
G1 X63.549 Y77.611 E0.02448
G1 X63.446 Y77.046 E0.02667
G1 X63.409 Y76.628 E0.01945
G1 X63.397 Y76.179 E0.02083
G1 X63.444 Y75.310 E0.04041
G1 X63.545 Y74.735 E0.02704
G1 X63.704 Y74.234 E0.02443
G1 X63.928 Y73.802 E0.02255
G1 X64.226 Y73.447 E0.02153
G1 X64.600 Y73.181 E0.02129
G1 X65.033 Y73.013 E0.02156
G1 X65.358 Y72.952 E0.01533
G1 X65.875 Y72.938 E0.02398
G1 X66.204 Y72.978 E0.01539
G1 X66.649 Y73.116 E0.02159
G1 X67.035 Y73.351 E0.02096
G1 X67.261 Y73.565 E0.01445
G1 X67.452 Y73.816 E0.01464
G1 X67.673 Y74.245 E0.02236
G1 X67.832 Y74.746 E0.02440
G1 X67.921 Y75.247 E0.02361
G1 X68.169 Y75.221 E0.01159
G1 X68.138 Y74.349 E0.04048
G1 X69.429 Y74.349 E0.05992
G1 X69.440 Y74.570 E0.01029
G1 X69.759 Y74.398 E0.01684
G1 X70.029 Y74.313 E0.01314
G1 X70.320 Y74.272 E0.01362
G1 X70.643 Y74.272 E0.01498
G1 X70.962 Y74.317 E0.01493
G1 X71.308 Y74.442 E0.01707
G1 X71.554 Y74.611 E0.01385
G1 X71.716 Y74.809 E0.01190
G1 X71.896 Y74.635 E0.01159
G1 X72.076 Y74.506 E0.01032
G1 X72.272 Y74.406 E0.01017
G1 X72.481 Y74.334 E0.01026
G1 X72.704 Y74.288 E0.01056
G1 X72.983 Y74.267 E0.01299
G1 X73.448 Y74.306 E0.02166
G1 X73.741 Y74.393 E0.01415
G1 X73.926 Y74.486 E0.00961
G1 X74.148 Y74.660 E0.01310
G1 X74.277 Y74.814 E0.00932
G1 X74.381 Y74.990 E0.00948
G1 X74.490 Y75.279 E0.01434
G1 X74.558 Y75.612 E0.01573
G1 X74.587 Y75.982 E0.01723
G1 X74.589 Y79.351 E0.15631
G1 X73.265 Y79.351 E0.06144
G1 X73.264 Y76.176 E0.14729
G1 X73.232 Y75.811 E0.01703
G1 X73.169 Y75.601 E0.01016
G1 X73.103 Y75.517 E0.00493
G1 X72.985 Y75.461 E0.00607
G1 X72.753 Y75.434 E0.01087
G1 X72.520 Y75.471 E0.01090
G1 X72.348 Y75.568 E0.00921
G1 X72.205 Y75.744 E0.01049
G1 X72.096 Y76.031 E0.01427
G1 X72.048 Y76.418 E0.01809
G1 X72.046 Y79.351 E0.13606
G1 X70.722 Y79.351 E0.06143
G1 X70.721 Y76.176 E0.14729
G1 X70.689 Y75.811 E0.01703
G1 X70.626 Y75.601 E0.01016
G1 X70.560 Y75.517 E0.00493
G1 X70.442 Y75.461 E0.00607
G1 X70.210 Y75.434 E0.01085
G1 X69.984 Y75.471 E0.01061
G1 X69.811 Y75.572 E0.00930
G1 X69.665 Y75.749 E0.01062
G1 X69.554 Y76.035 E0.01428
G1 X69.505 Y76.419 E0.01796
G1 X69.503 Y79.351 E0.13601
G1 X68.250 Y79.351 E0.05814
G1 X67.711 Y79.538 F9000.000
G1 X63.373 Y79.351 F9000.000
G1 F1800
G1 X59.180 Y79.351 E0.19451
G1 X59.180 Y78.129 E0.05672
G1 X60.641 Y78.129 E0.06776
G1 X60.641 Y74.601 E0.16366
G1 X59.347 Y75.525 E0.07375
G1 X59.347 Y74.092 E0.06644
G1 X60.909 Y73.018 E0.08793
G1 X61.977 Y73.018 E0.04958
G1 X61.977 Y78.129 E0.23708
G1 X63.373 Y78.129 E0.06474
G1 X63.373 Y79.276 E0.05324
G1 X63.513 Y79.831 F9000.000
G1 X74.954 Y79.351 F9000.000
G1 F1800
G1 X74.953 Y75.371 E0.18465
G1 X74.917 Y74.349 E0.04745
G1 X76.209 Y74.349 E0.05993
G1 X76.219 Y74.570 E0.01028
G1 X76.538 Y74.398 E0.01682
G1 X76.808 Y74.313 E0.01314
G1 X77.099 Y74.272 E0.01362
G1 X77.422 Y74.272 E0.01498
G1 X77.741 Y74.317 E0.01493
G1 X78.087 Y74.442 E0.01706
G1 X78.333 Y74.611 E0.01385
G1 X78.495 Y74.809 E0.01190
G1 X78.675 Y74.635 E0.01159
G1 X78.855 Y74.506 E0.01032
G1 X79.051 Y74.406 E0.01017
G1 X79.260 Y74.334 E0.01027
G1 X79.483 Y74.288 E0.01056
G1 X79.762 Y74.267 E0.01299
G1 X80.227 Y74.306 E0.02166
G1 X80.520 Y74.393 E0.01415
G1 X80.705 Y74.486 E0.00961
G1 X80.927 Y74.660 E0.01310
G1 X81.056 Y74.814 E0.00932
G1 X81.160 Y74.990 E0.00948
G1 X81.269 Y75.279 E0.01433
G1 X81.337 Y75.612 E0.01573
G1 X81.366 Y75.982 E0.01724
G1 X81.368 Y79.351 E0.15631
G1 X80.044 Y79.351 E0.06144
G1 X80.043 Y76.176 E0.14729
G1 X80.011 Y75.811 E0.01703
G1 X79.948 Y75.601 E0.01015
G1 X79.882 Y75.517 E0.00493
G1 X79.764 Y75.461 E0.00607
G1 X79.532 Y75.434 E0.01086
G1 X79.295 Y75.472 E0.01112
G1 X79.123 Y75.572 E0.00921
G1 X78.984 Y75.744 E0.01026
G1 X78.875 Y76.031 E0.01426
G1 X78.827 Y76.418 E0.01809
G1 X78.825 Y79.351 E0.13606
G1 X77.501 Y79.351 E0.06143
G1 X77.501 Y76.270 E0.14297
G1 X77.467 Y75.809 E0.02143
G1 X77.405 Y75.601 E0.01007
G1 X77.339 Y75.517 E0.00493
G1 X77.221 Y75.461 E0.00607
G1 X76.989 Y75.434 E0.01085
G1 X76.765 Y75.470 E0.01053
G1 X76.591 Y75.570 E0.00926
G1 X76.444 Y75.749 E0.01074
G1 X76.333 Y76.036 E0.01428
G1 X76.284 Y76.419 E0.01796
G1 X76.282 Y79.351 E0.13601
G1 X75.029 Y79.351 E0.05814
G1 X74.490 Y79.538 F9000.000
G1 X67.283 Y80.244 F9000.000
G1 F1800
G1 X81.307 Y80.244 E0.65065
G1 X81.307 Y81.307 E0.04933
G1 X58.693 Y81.307 E1.04915
G1 X58.693 Y80.244 E0.04933
G1 X64.266 Y80.244 E0.25854
G1 X64.266 Y80.002 E0.01123
G1 X64.773 Y80.209 E0.02543
G1 X65.233 Y80.300 E0.02175
G1 X65.679 Y80.327 E0.02072
G1 X66.125 Y80.300 E0.02073
G1 X66.585 Y80.209 E0.02177
G1 X67.282 Y79.924 E0.03495
G1 X67.283 Y80.169 E0.01137
G1 E-3.50000 F2400.00000
G1 X59.748 Y77.236 F9000.000
G1 E3.50000 F2400.00000
G1 F1800
G1 X58.806 Y77.236 E0.04370
G1 X58.747 Y77.050 E0.00907
G1 X59.748 Y76.335 E0.05709
G1 X59.748 Y77.161 E0.03832
G1 E-3.50000 F2400.00000
G1 X62.870 Y72.126 F9000.000
G1 E3.50000 F2400.00000
G1 F1800
G1 X60.631 Y72.126 E0.10386
G1 X58.693 Y73.459 E0.10915
G1 X58.693 Y58.693 E0.68504
G1 X81.307 Y58.693 E1.04915
G1 X81.307 Y73.790 E0.70040
G1 X80.850 Y73.560 E0.02373
G1 X80.394 Y73.424 E0.02211
G1 X79.765 Y73.372 E0.02926
G1 X79.359 Y73.403 E0.01891
G1 X79.024 Y73.471 E0.01587
G1 X78.701 Y73.583 E0.01584
G1 X78.550 Y73.659 E0.00785
G1 X77.956 Y73.446 E0.02929
G1 X77.485 Y73.380 E0.02207
G1 X77.037 Y73.379 E0.02080
G1 X76.557 Y73.456 E0.02252
G1 X73.992 Y73.456 E0.11904
G1 X73.994 Y73.537 E0.00376
G1 X73.615 Y73.424 E0.01839
G1 X72.986 Y73.372 E0.02925
G1 X72.580 Y73.403 E0.01891
G1 X72.245 Y73.471 E0.01588
G1 X71.922 Y73.583 E0.01583
G1 X71.771 Y73.659 E0.00785
G1 X71.177 Y73.446 E0.02929
G1 X70.706 Y73.380 E0.02206
G1 X70.258 Y73.379 E0.02080
G1 X69.778 Y73.456 E0.02252
G1 X68.271 Y73.456 E0.06994
G1 X68.210 Y73.338 E0.00618
G1 X67.928 Y72.967 E0.02162
G1 X67.580 Y72.637 E0.02223
G1 X67.019 Y72.296 E0.03046
G1 X66.393 Y72.102 E0.03040
G1 X65.934 Y72.045 E0.02143
G1 X65.596 Y72.042 E0.01568
G1 X65.247 Y72.065 E0.01625
G1 X64.788 Y72.150 E0.02163
G1 X64.173 Y72.389 E0.03060
G1 X63.616 Y72.786 E0.03177
G1 X63.181 Y73.304 E0.03136
G1 X63.074 Y73.509 E0.01075
G1 X62.870 Y73.459 E0.00976
G1 X62.870 Y72.201 E0.05840
G1 X62.424 Y72.572 F9000.000
G1 F1800
G1 X60.770 Y72.572 E0.07672
G1 X58.901 Y73.858 E0.10526
G1 X58.901 Y76.392 E0.11756
G1 X60.194 Y75.468 E0.07375
G1 X60.194 Y77.682 E0.10273
G1 X58.734 Y77.682 E0.06776
G1 X58.734 Y79.798 E0.09813
G1 X63.819 Y79.798 E0.23592
G1 X63.819 Y79.150 E0.03005
G1 X64.388 Y79.570 E0.03281
G1 X64.902 Y79.780 E0.02574
G1 X65.290 Y79.857 E0.01836
G1 X65.678 Y79.880 E0.01805
G1 X66.067 Y79.856 E0.01807
G1 X66.456 Y79.779 E0.01839
G1 X66.971 Y79.569 E0.02579
G1 X67.428 Y79.233 E0.02633
G1 X67.729 Y78.875 E0.02169
G1 X67.729 Y79.798 E0.04280
G1 X69.949 Y79.798 E0.10302
G1 X69.951 Y76.448 E0.15539
G1 X69.990 Y76.146 E0.01412
G1 X70.049 Y75.994 E0.00758
G1 X70.259 Y76.024 E0.00986
G1 X70.275 Y76.196 E0.00803
G1 X70.276 Y79.798 E0.16708
G1 X72.492 Y79.798 E0.10282
G1 X72.494 Y76.446 E0.15548
G1 X72.532 Y76.140 E0.01434
G1 X72.590 Y75.987 E0.00759
G1 X72.802 Y76.016 E0.00990
G1 X72.818 Y76.196 E0.00840
G1 X72.819 Y79.798 E0.16708
G1 X76.728 Y79.798 E0.18137
G1 X76.730 Y76.448 E0.15539
G1 X76.769 Y76.146 E0.01412
G1 X76.825 Y76.003 E0.00713
G1 X77.036 Y76.035 E0.00994
G1 X77.055 Y76.286 E0.01170
G1 X77.055 Y79.798 E0.16291
G1 X79.271 Y79.798 E0.10283
G1 X79.273 Y76.446 E0.15548
G1 X79.312 Y76.140 E0.01434
G1 X79.369 Y75.987 E0.00758
G1 X79.581 Y76.016 E0.00990
G1 X79.597 Y76.196 E0.00839
G1 X79.598 Y79.798 E0.16709
G1 X81.754 Y79.798 E0.10001
G1 X81.754 Y81.754 E0.09075
G1 X58.246 Y81.754 E1.09057
G1 X58.246 Y58.246 E1.09057
G1 X81.754 Y58.246 E1.09057
G1 X81.754 Y74.730 E0.76473
G1 X81.557 Y74.784 E0.00948
G1 X81.421 Y74.556 E0.01231
G1 X81.239 Y74.338 E0.01318
G1 X80.945 Y74.107 E0.01734
G1 X80.685 Y73.977 E0.01350
G1 X80.311 Y73.865 E0.01813
G1 X79.764 Y73.820 E0.02546
G1 X79.421 Y73.845 E0.01595
G1 X79.142 Y73.903 E0.01322
G1 X78.876 Y73.994 E0.01305
G1 X78.623 Y74.123 E0.01318
G1 X78.520 Y74.197 E0.00589
G1 X78.292 Y74.041 E0.01281
G1 X77.848 Y73.882 E0.02187
G1 X77.453 Y73.826 E0.01850
G1 X77.068 Y73.826 E0.01789
G1 X76.626 Y73.903 E0.02079
G1 X74.454 Y73.903 E0.10077
G1 X74.470 Y74.346 E0.02058
G1 X74.166 Y74.107 E0.01793
G1 X73.906 Y73.977 E0.01350
G1 X73.532 Y73.865 E0.01813
G1 X72.985 Y73.820 E0.02545
G1 X72.642 Y73.845 E0.01595
G1 X72.363 Y73.903 E0.01322
G1 X72.097 Y73.994 E0.01305
G1 X71.844 Y74.123 E0.01318
G1 X71.740 Y74.197 E0.00589
G1 X71.513 Y74.041 E0.01281
G1 X71.069 Y73.882 E0.02188
G1 X70.674 Y73.826 E0.01850
G1 X70.289 Y73.826 E0.01789
G1 X69.847 Y73.903 E0.02080
G1 X67.999 Y73.903 E0.08575
G1 X67.831 Y73.577 E0.01699
G1 X67.594 Y73.266 E0.01813
G1 X67.307 Y72.994 E0.01834
G1 X66.834 Y72.706 E0.02571
G1 X66.299 Y72.540 E0.02600
G1 X65.905 Y72.492 E0.01841
G1 X65.303 Y72.509 E0.02795
G1 X64.911 Y72.582 E0.01848
G1 X64.387 Y72.785 E0.02608
G1 X63.921 Y73.116 E0.02653
G1 X63.555 Y73.553 E0.02645
G1 X63.290 Y74.062 E0.02661
G1 X63.110 Y74.629 E0.02760
G1 X63.000 Y75.259 E0.02966
G1 X62.950 Y76.173 E0.04250
G1 X62.963 Y76.654 E0.02231
G1 X63.003 Y77.106 E0.02104
G1 X63.109 Y77.682 E0.02719
G1 X62.424 Y77.682 E0.03178
G1 X62.424 Y72.647 E0.23360
G1 E-3.50000 F2400.00000
G1 X57.800 Y82.200 F9000.000
G1 E3.50000 F2400.00000
G1 F1800
G1 X57.800 Y57.800 E1.13198
G1 X82.200 Y57.800 E1.13198
G1 X82.200 Y82.200 E1.13198
G1 X57.875 Y82.200 E1.12850
G1 X57.929 Y81.717 F9000.000
G1 E-3.50000 F2400.00000
G1 X65.685 Y77.784 F9000.000
G1 E3.50000 F2400.00000
G1 F1800
G1 X65.530 Y77.761 E0.00730
G1 X65.447 Y77.693 E0.00497
G1 X65.378 Y77.575 E0.00635
G1 X65.278 Y77.261 E0.01526
G1 X65.223 Y76.934 E0.01537
G1 X65.190 Y76.511 E0.01972
G1 X65.186 Y76.009 E0.02328
G1 X65.209 Y75.543 E0.02163
G1 X65.258 Y75.171 E0.01743
G1 X65.326 Y74.889 E0.01344
G1 X65.403 Y74.713 E0.00891
G1 X65.459 Y74.645 E0.00411
G1 X65.567 Y74.592 E0.00559
G1 X65.721 Y74.579 E0.00716
G1 X65.852 Y74.600 E0.00612
G1 X65.925 Y74.635 E0.00378
G1 X66.006 Y74.778 E0.00764
G1 X66.075 Y74.983 E0.01003
G1 X66.135 Y75.291 E0.01456
G1 X66.175 Y75.690 E0.01861
G1 X66.187 Y76.350 E0.03061
G1 X66.163 Y76.790 E0.02044
G1 X66.114 Y77.151 E0.01691
G1 X66.046 Y77.425 E0.01308
G1 X65.972 Y77.605 E0.00905
G1 X65.909 Y77.701 E0.00533
G1 X65.834 Y77.768 E0.00467
G1 X65.760 Y77.776 E0.00344
G1 X65.686 Y78.233 F9000.000
G1 F1800
G1 X65.468 Y78.210 E0.01018
G1 X65.253 Y78.119 E0.01081
G1 X65.081 Y77.954 E0.01106
G1 X64.968 Y77.756 E0.01059
G1 X64.843 Y77.367 E0.01896
G1 X64.780 Y76.989 E0.01779
G1 X64.744 Y76.530 E0.02134
G1 X64.739 Y76.000 E0.02461
G1 X64.764 Y75.503 E0.02307
G1 X64.818 Y75.089 E0.01938
G1 X64.899 Y74.757 E0.01585
G1 X64.962 Y74.589 E0.00830
G1 X65.031 Y74.462 E0.00669
G1 X65.154 Y74.313 E0.00901
G1 X65.298 Y74.213 E0.00809
G1 X65.474 Y74.152 E0.00867
G1 X65.738 Y74.130 E0.01228
G1 X65.984 Y74.169 E0.01155
G1 X66.144 Y74.244 E0.00822
G1 X66.306 Y74.400 E0.01042
G1 X66.416 Y74.596 E0.01042
G1 X66.507 Y74.869 E0.01334
G1 X66.577 Y75.226 E0.01690
G1 X66.621 Y75.664 E0.02041
G1 X66.634 Y76.358 E0.03218
G1 X66.608 Y76.832 E0.02204
G1 X66.553 Y77.235 E0.01888
G1 X66.472 Y77.564 E0.01571
G1 X66.368 Y77.816 E0.01263
G1 X66.249 Y77.995 E0.01001
G1 X66.109 Y78.120 E0.00868
G1 X65.902 Y78.209 E0.01048
G1 X65.761 Y78.225 E0.00659
G1 X65.578 Y78.042 F9000.000
G1 X65.694 Y77.559 F9000.000
G1 F1200
G1 X65.684 Y76.878 E0.02817
G1 F1200
G1 X65.688 Y75.357 E0.07199
G1 F1200
G1 X65.671 Y74.807 E0.02299
G1 E-3.50000 F2400.00000
G1 X63.172 Y73.763 F9000.000
G1 E3.50000 F2400.00000
G1 F1200
G1 X62.869 Y73.918 E0.01218
G1 X62.797 Y74.382 E0.01684
G1 F1200
G1 X62.771 Y74.554 E0.00445
G1 F1200
G1 X62.732 Y74.999 E0.00903
G1 F1200
G1 X62.699 Y75.699 E0.00851
G1 F1200
G1 X62.687 Y76.171 E0.00254
G1 X62.715 Y77.148 E0.00526
G1 F1200
G1 X62.743 Y77.459 E0.00399
G1 X63.596 Y78.583 F9000.000
G1 F1200
G1 X63.698 Y78.702 E0.00156
G1 F1200
G1 X63.928 Y78.920 E0.00129
G1 X65.187 Y80.803 F9000.000
G1 F1200
G1 X65.695 Y80.817 E0.02687
G1 X66.209 Y80.800 E0.02719
G1 F1200
G1 X66.715 Y80.750 E0.02979
G1 F1200
G1 X66.826 Y80.732 E0.00746
G1 X67.059 Y80.776 E0.01559
G1 F1200
G1 X81.084 Y80.776 E0.82122
G1 X81.784 Y79.574 F9000.000
G1 F1200
G1 X81.783 Y75.973 E0.12485
G1 X81.766 Y75.538 E0.01508
G1 F1200
G1 X81.709 Y74.974 E0.02364
G1 X81.530 Y74.230 F9000.000
G1 F1200
G1 X81.295 Y74.064 E0.00171
G1 E-3.50000 F2400.00000
G1 X79.764 Y75.765 F9000.000
G1 E3.50000 F2400.00000
G1 F1200
G1 X79.523 Y75.720 E0.00188
G1 X79.279 Y75.736 E0.00187
G1 E-3.50000 F2400.00000
G1 X77.225 Y75.776 F9000.000
G1 E3.50000 F2400.00000
G1 F1200
G1 X76.981 Y75.729 E0.00240
G1 X76.755 Y75.735 E0.00218
G1 E-3.50000 F2400.00000
G1 X74.696 Y75.121 F9000.000
G1 E3.50000 F2400.00000
G1 F1200
G1 X74.641 Y74.853 E0.00123
G1 X74.476 Y74.665 E0.00112
G1 X72.985 Y75.765 F9000.000
G1 F1200
G1 X72.744 Y75.720 E0.00187
G1 X72.539 Y75.733 E0.00157
G1 E-3.50000 F2400.00000
G1 X70.443 Y75.769 F9000.000
G1 E3.50000 F2400.00000
G1 F1200
G1 X70.202 Y75.724 E0.00208
G1 X69.954 Y75.744 E0.00211
G1 E-3.50000 F2400.00000
G1 X67.927 Y78.086 F9000.000
G1 E3.50000 F2400.00000
G1 F1200
G1 X67.899 Y78.243 E0.00063
G1 X67.756 Y78.454 E0.00101
G1 X67.506 Y79.527 F9000.000
G1 F1200
G1 X67.267 Y79.660 E0.00145
G1 X65.187 Y80.803 F9000.000
G1 F1200
G1 X64.659 Y80.752 E0.03108
G1 X64.489 Y80.776 E0.01004
G1 X58.916 Y80.776 E0.32632
G1 X58.554 Y77.459 F9000.000
G1 F1200
G1 X58.495 Y77.079 E0.00371
G1 X58.573 Y76.899 F9000.000
G1 F1200
G1 X58.573 Y73.812 E0.04949
G1 X59.186 Y72.657 F9000.000
G1 F1800
G1 X59.092 Y72.563 E0.00630
G1 X59.092 Y71.923 E0.03009
G1 X59.566 Y72.397 E0.03152
G1 X59.945 Y72.136 E0.02164
G1 X59.092 Y71.283 E0.05673
G1 X59.092 Y70.643 E0.03009
G1 X60.324 Y71.875 E0.08195
G1 X60.540 Y71.727 E0.01234
G1 X60.815 Y71.727 E0.01294
G1 X59.092 Y70.003 E0.11462
G1 X59.092 Y69.363 E0.03009
G1 X61.455 Y71.727 E0.15718
G1 X62.095 Y71.727 E0.03009
G1 X59.092 Y68.723 E0.19973
G1 X59.092 Y68.084 E0.03009
G1 X62.735 Y71.727 E0.24229
G1 X63.364 Y71.727 E0.02957
G1 X63.364 Y72.157 E0.02024
G1 X63.554 Y72.363 E0.01318
G1 X63.821 Y72.173 E0.01541
G1 X59.092 Y67.444 E0.31451
G1 X59.092 Y66.804 E0.03009
G1 X64.238 Y71.950 E0.34228
G1 X64.699 Y71.772 E0.02326
G1 X59.092 Y66.164 E0.37296
G1 X59.092 Y65.524 E0.03009
G1 X65.237 Y71.669 E0.40867
G1 X65.852 Y71.645 E0.02899
G1 X59.092 Y64.884 E0.44964
G1 X59.092 Y64.244 E0.03009
G1 X66.569 Y71.722 E0.49730
G1 X67.251 Y71.934 E0.03358
G1 X67.685 Y72.197 E0.02386
G1 X59.092 Y63.605 E0.57148
G1 X59.092 Y62.965 E0.03009
G1 X69.184 Y73.057 E0.67122
G1 X69.819 Y73.052 E0.02987
G1 X59.092 Y62.325 E0.71346
G1 X59.092 Y61.685 E0.03009
G1 X70.387 Y72.980 E0.75122
G1 X70.785 Y72.981 E0.01871
G1 X71.067 Y73.021 E0.01341
G1 X59.092 Y61.045 E0.79645
G1 X59.092 Y60.405 E0.03009
G1 X71.876 Y73.190 E0.85027
G1 X72.174 Y73.087 E0.01479
G1 X72.373 Y73.047 E0.00956
G1 X59.092 Y59.765 E0.88329
G1 X59.092 Y59.125 E0.03009
G1 X72.945 Y72.978 E0.92131
G1 X73.626 Y73.020 E0.03213
G1 X59.698 Y59.092 E0.92635
G1 X60.338 Y59.092 E0.03009
G1 X74.303 Y73.057 E0.92880
G1 X74.943 Y73.057 E0.03009
G1 X60.978 Y59.092 E0.92880
G1 X61.617 Y59.092 E0.03009
G1 X75.583 Y73.057 E0.92880
G1 X76.223 Y73.057 E0.03009
G1 X62.257 Y59.092 E0.92880
G1 X62.897 Y59.092 E0.03009
G1 X76.822 Y73.017 E0.92610
G1 X77.049 Y72.980 E0.01079
G1 X77.426 Y72.981 E0.01774
G1 X63.537 Y59.092 E0.92371
G1 X64.177 Y59.092 E0.03009
G1 X78.161 Y73.076 E0.93004
G1 X78.567 Y73.222 E0.02028
G1 X78.848 Y73.123 E0.01403
G1 X64.817 Y59.092 E0.93320
G1 X65.457 Y59.092 E0.03009
G1 X79.370 Y73.005 E0.92533
G1 X79.814 Y72.971 E0.02095
G1 X79.991 Y72.986 E0.00833
G1 X66.096 Y59.092 E0.92407
G1 X66.736 Y59.092 E0.03009
G1 X80.739 Y73.094 E0.93127
G1 X80.908 Y73.145 E0.00831
G1 X80.908 Y72.624 E0.02451
G1 X67.376 Y59.092 E0.89997
G1 X68.016 Y59.092 E0.03009
G1 X80.908 Y71.984 E0.85742
G1 X80.908 Y71.344 E0.03009
G1 X68.656 Y59.092 E0.81486
G1 X69.296 Y59.092 E0.03009
G1 X80.908 Y70.704 E0.77231
G1 X80.908 Y70.064 E0.03009
G1 X69.936 Y59.092 E0.72975
G1 X70.576 Y59.092 E0.03009
G1 X80.908 Y69.424 E0.68720
G1 X80.908 Y68.785 E0.03009
G1 X71.215 Y59.092 E0.64464
G1 X71.855 Y59.092 E0.03009
G1 X80.908 Y68.145 E0.60208
G1 X80.908 Y67.505 E0.03009
G1 X72.495 Y59.092 E0.55953
G1 X73.135 Y59.092 E0.03009
G1 X80.908 Y66.865 E0.51697
G1 X80.908 Y66.225 E0.03009
G1 X73.775 Y59.092 E0.47442
G1 X74.415 Y59.092 E0.03009
G1 X80.908 Y65.585 E0.43186
G1 X80.908 Y64.945 E0.03009
G1 X75.055 Y59.092 E0.38931
G1 X75.695 Y59.092 E0.03009
G1 X80.908 Y64.305 E0.34675
G1 X80.908 Y63.666 E0.03009
G1 X76.334 Y59.092 E0.30420
G1 X76.974 Y59.092 E0.03009
G1 X80.908 Y63.026 E0.26164
G1 X80.908 Y62.386 E0.03009
G1 X77.614 Y59.092 E0.21908
G1 X78.254 Y59.092 E0.03009
G1 X80.908 Y61.746 E0.17653
G1 X80.908 Y61.106 E0.03009
G1 X78.894 Y59.092 E0.13397
G1 X79.534 Y59.092 E0.03009
G1 X80.908 Y60.466 E0.09142
G1 X80.908 Y59.826 E0.03009
G1 X80.174 Y59.092 E0.04886
G1 X80.813 Y59.092 E0.03009
G1 X80.908 Y59.187 E0.00631
G1 X63.311 Y72.761 F9000.000
G1 F1200
G1 X63.093 Y72.962 E0.00169
M106 S255
G1 E-3.50000 F2400.00000
G1 Z0.750 F9000.000
G1 X68.175 Y79.351 F9000.000
G1 E3.50000 F2400.00000
G1 F1800
G1 X68.175 Y77.032 E0.10758
G1 X67.926 Y77.014 E0.01155
G1 X67.867 Y77.423 E0.01916
G1 X67.775 Y77.782 E0.01716
G1 X67.655 Y78.112 E0.01633
G1 X67.423 Y78.545 E0.02276
G1 X67.121 Y78.905 E0.02183
G1 X66.751 Y79.177 E0.02129
G1 X66.327 Y79.350 E0.02125
G1 X66.010 Y79.413 E0.01500
G1 X65.674 Y79.433 E0.01559
G1 X65.188 Y79.388 E0.02265
G1 X64.745 Y79.247 E0.02160
G1 X64.356 Y79.007 E0.02116
G1 X64.034 Y78.676 E0.02144
G1 X63.782 Y78.265 E0.02236
G1 X63.597 Y77.786 E0.02384
G1 X63.474 Y77.242 E0.02586
G1 X63.417 Y76.771 E0.02201
G1 X63.400 Y76.405 E0.01702
G1 X63.423 Y75.516 E0.04126
G1 X63.505 Y74.918 E0.02798
G1 X63.644 Y74.393 E0.02521
G1 X63.844 Y73.942 E0.02287
G1 X64.019 Y73.676 E0.01479
G1 X64.231 Y73.444 E0.01458
G1 X64.600 Y73.181 E0.02105
G1 X65.033 Y73.013 E0.02156
G1 X65.357 Y72.952 E0.01528
G1 X65.874 Y72.937 E0.02400
G1 X66.204 Y72.978 E0.01543
G1 X66.649 Y73.116 E0.02159
G1 X67.039 Y73.354 E0.02120
G1 X67.360 Y73.684 E0.02134
G1 X67.604 Y74.090 E0.02199
G1 X67.733 Y74.405 E0.01579
G1 X67.833 Y74.749 E0.01662
G1 X67.921 Y75.247 E0.02347
G1 X68.169 Y75.221 E0.01159
G1 X68.138 Y74.349 E0.04048
G1 X69.429 Y74.349 E0.05992
G1 X69.440 Y74.570 E0.01029
G1 X69.759 Y74.398 E0.01684
G1 X70.029 Y74.313 E0.01314
G1 X70.320 Y74.272 E0.01362
G1 X70.643 Y74.272 E0.01498
G1 X70.962 Y74.317 E0.01493
G1 X71.308 Y74.442 E0.01707
G1 X71.554 Y74.611 E0.01385
G1 X71.716 Y74.809 E0.01190
G1 X71.896 Y74.635 E0.01159
G1 X72.076 Y74.506 E0.01032
G1 X72.272 Y74.406 E0.01017
G1 X72.481 Y74.334 E0.01026
G1 X72.703 Y74.289 E0.01053
G1 X72.960 Y74.268 E0.01196
G1 X73.448 Y74.306 E0.02270
G1 X73.741 Y74.393 E0.01418
G1 X73.926 Y74.486 E0.00961
G1 X74.148 Y74.660 E0.01310
G1 X74.277 Y74.814 E0.00932
G1 X74.381 Y74.990 E0.00948
G1 X74.491 Y75.280 E0.01440
G1 X74.573 Y75.708 E0.02021
G1 X74.587 Y75.985 E0.01288
G1 X74.589 Y79.351 E0.15615
G1 X73.265 Y79.351 E0.06144
G1 X73.264 Y76.176 E0.14729
G1 X73.232 Y75.811 E0.01703
G1 X73.169 Y75.601 E0.01016
G1 X73.103 Y75.517 E0.00493
G1 X72.985 Y75.461 E0.00607
G1 X72.753 Y75.434 E0.01087
G1 X72.520 Y75.471 E0.01090
G1 X72.348 Y75.568 E0.00921
G1 X72.205 Y75.744 E0.01049
G1 X72.096 Y76.031 E0.01427
G1 X72.048 Y76.418 E0.01809
G1 X72.046 Y79.351 E0.13606
G1 X70.722 Y79.351 E0.06143
G1 X70.721 Y76.176 E0.14729
G1 X70.689 Y75.811 E0.01703
G1 X70.626 Y75.601 E0.01016
G1 X70.560 Y75.517 E0.00493
G1 X70.442 Y75.461 E0.00607
G1 X70.210 Y75.434 E0.01085
G1 X69.981 Y75.472 E0.01076
G1 X69.809 Y75.573 E0.00926
G1 X69.665 Y75.749 E0.01052
G1 X69.554 Y76.035 E0.01428
G1 X69.505 Y76.419 E0.01796
G1 X69.503 Y79.351 E0.13601
G1 X68.250 Y79.351 E0.05814
G1 X67.711 Y79.538 F9000.000
G1 X63.373 Y79.351 F9000.000
G1 F1800
G1 X59.180 Y79.351 E0.19451
G1 X59.180 Y78.129 E0.05672
G1 X60.641 Y78.129 E0.06776
G1 X60.641 Y74.601 E0.16366
G1 X59.347 Y75.525 E0.07375
G1 X59.347 Y74.092 E0.06644
G1 X60.909 Y73.018 E0.08793
G1 X61.977 Y73.018 E0.04958
G1 X61.977 Y78.129 E0.23708
G1 X63.373 Y78.129 E0.06474
G1 X63.373 Y79.276 E0.05324
G1 X63.513 Y79.831 F9000.000
G1 X74.954 Y79.351 F9000.000
G1 F1800
G1 X74.953 Y75.371 E0.18465
G1 X74.917 Y74.349 E0.04745
G1 X76.209 Y74.349 E0.05993
G1 X76.219 Y74.570 E0.01028
G1 X76.538 Y74.398 E0.01682
G1 X76.808 Y74.313 E0.01314
G1 X77.099 Y74.272 E0.01362
G1 X77.422 Y74.272 E0.01498
G1 X77.741 Y74.317 E0.01493
G1 X78.087 Y74.442 E0.01706
G1 X78.333 Y74.611 E0.01385
G1 X78.495 Y74.809 E0.01190
G1 X78.675 Y74.635 E0.01159
G1 X78.855 Y74.506 E0.01032
G1 X79.051 Y74.406 E0.01017
G1 X79.260 Y74.334 E0.01027
G1 X79.482 Y74.289 E0.01053
G1 X79.739 Y74.268 E0.01196
G1 X80.227 Y74.306 E0.02270
G1 X80.520 Y74.393 E0.01417
G1 X80.705 Y74.486 E0.00961
G1 X80.927 Y74.660 E0.01310
G1 X81.056 Y74.814 E0.00932
G1 X81.160 Y74.990 E0.00948
G1 X81.269 Y75.279 E0.01433
G1 X81.337 Y75.612 E0.01573
G1 X81.366 Y75.982 E0.01724
G1 X81.368 Y79.351 E0.15631
G1 X80.044 Y79.351 E0.06144
G1 X80.043 Y76.176 E0.14729
G1 X80.011 Y75.811 E0.01703
G1 X79.948 Y75.601 E0.01015
G1 X79.882 Y75.517 E0.00493
G1 X79.764 Y75.461 E0.00607
G1 X79.532 Y75.434 E0.01086
G1 X79.295 Y75.472 E0.01112
G1 X79.123 Y75.572 E0.00921
G1 X78.984 Y75.744 E0.01026
G1 X78.875 Y76.031 E0.01426
G1 X78.827 Y76.418 E0.01809
G1 X78.825 Y79.351 E0.13606
G1 X77.501 Y79.351 E0.06143
G1 X77.501 Y76.270 E0.14297
G1 X77.467 Y75.809 E0.02143
G1 X77.405 Y75.601 E0.01007
G1 X77.339 Y75.517 E0.00493
G1 X77.221 Y75.461 E0.00607
G1 X76.989 Y75.434 E0.01085
G1 X76.765 Y75.470 E0.01053
G1 X76.591 Y75.570 E0.00926
G1 X76.444 Y75.749 E0.01074
G1 X76.333 Y76.036 E0.01428
G1 X76.284 Y76.419 E0.01796
G1 X76.282 Y79.351 E0.13601
G1 X75.029 Y79.351 E0.05814
G1 X74.490 Y79.538 F9000.000
G1 X67.283 Y80.244 F9000.000
G1 F1800
G1 X81.307 Y80.244 E0.65065
G1 X81.307 Y81.307 E0.04933
G1 X58.693 Y81.307 E1.04915
G1 X58.693 Y80.244 E0.04933
G1 X64.266 Y80.244 E0.25854
G1 X64.266 Y80.031 E0.00988
G1 X65.009 Y80.268 E0.03622
G1 X65.660 Y80.329 E0.03032
G1 X66.125 Y80.300 E0.02159
G1 X66.585 Y80.209 E0.02177
G1 X67.282 Y79.924 E0.03495
G1 X67.283 Y80.169 E0.01137
G1 E-3.50000 F2400.00000
G1 X59.748 Y77.236 F9000.000
G1 E3.50000 F2400.00000
G1 F1800
G1 X58.806 Y77.236 E0.04370
G1 X58.747 Y77.050 E0.00907
G1 X59.748 Y76.335 E0.05709
G1 X59.748 Y77.161 E0.03832
G1 E-3.50000 F2400.00000
G1 X62.870 Y72.126 F9000.000
G1 E3.50000 F2400.00000
G1 F1800
G1 X60.631 Y72.126 E0.10386
G1 X58.693 Y73.459 E0.10915
G1 X58.693 Y58.693 E0.68504
G1 X81.307 Y58.693 E1.04915
G1 X81.307 Y73.790 E0.70040
G1 X80.850 Y73.560 E0.02373
G1 X80.391 Y73.423 E0.02224
G1 X79.737 Y73.372 E0.03042
G1 X79.356 Y73.403 E0.01777
G1 X79.024 Y73.471 E0.01572
G1 X78.701 Y73.583 E0.01584
G1 X78.550 Y73.659 E0.00785
G1 X77.956 Y73.446 E0.02929
G1 X77.485 Y73.380 E0.02207
G1 X77.037 Y73.379 E0.02080
G1 X76.557 Y73.456 E0.02252
G1 X73.992 Y73.456 E0.11904
G1 X73.994 Y73.537 E0.00376
G1 X73.612 Y73.423 E0.01852
G1 X72.958 Y73.372 E0.03041
G1 X72.577 Y73.403 E0.01777
G1 X72.245 Y73.471 E0.01572
G1 X71.922 Y73.583 E0.01583
G1 X71.771 Y73.659 E0.00785
G1 X71.177 Y73.446 E0.02929
G1 X70.706 Y73.380 E0.02206
G1 X70.258 Y73.379 E0.02080
G1 X69.778 Y73.456 E0.02252
G1 X68.265 Y73.456 E0.07021
G1 X68.072 Y73.135 E0.01738
G1 X67.600 Y72.650 E0.03139
G1 X67.019 Y72.296 E0.03157
G1 X66.393 Y72.102 E0.03040
G1 X65.931 Y72.045 E0.02161
G1 X65.538 Y72.043 E0.01821
G1 X65.241 Y72.066 E0.01381
G1 X64.788 Y72.150 E0.02137
G1 X64.173 Y72.389 E0.03060
G1 X63.635 Y72.772 E0.03066
G1 X63.312 Y73.127 E0.02227
G1 X63.061 Y73.508 E0.02117
G1 X62.870 Y73.451 E0.00925
G1 X62.870 Y72.201 E0.05801
G1 X62.424 Y72.572 F9000.000
G1 F1800
G1 X60.770 Y72.572 E0.07672
G1 X58.901 Y73.858 E0.10526
G1 X58.901 Y76.392 E0.11756
G1 X60.194 Y75.468 E0.07375
G1 X60.194 Y77.682 E0.10273
G1 X58.734 Y77.682 E0.06776
G1 X58.734 Y79.798 E0.09813
G1 X63.819 Y79.798 E0.23592
G1 X63.819 Y79.095 E0.03259
G1 X64.075 Y79.358 E0.01703
G1 X64.557 Y79.655 E0.02627
G1 X65.099 Y79.828 E0.02638
G1 X65.667 Y79.881 E0.02648
G1 X66.067 Y79.856 E0.01859
G1 X66.456 Y79.779 E0.01839
G1 X66.971 Y79.569 E0.02579
G1 X67.428 Y79.233 E0.02633
G1 X67.729 Y78.875 E0.02169
G1 X67.729 Y79.798 E0.04280
G1 X69.949 Y79.798 E0.10302
G1 X69.951 Y76.448 E0.15539
G1 X69.990 Y76.146 E0.01412
G1 X70.049 Y75.994 E0.00758
G1 X70.259 Y76.024 E0.00986
G1 X70.275 Y76.196 E0.00803
G1 X70.276 Y79.798 E0.16708
G1 X72.492 Y79.798 E0.10282
G1 X72.494 Y76.446 E0.15548
G1 X72.532 Y76.140 E0.01434
G1 X72.590 Y75.987 E0.00759
G1 X72.802 Y76.016 E0.00990
G1 X72.818 Y76.196 E0.00840
G1 X72.819 Y79.798 E0.16708
G1 X76.728 Y79.798 E0.18137
G1 X76.730 Y76.448 E0.15539
G1 X76.769 Y76.146 E0.01412
G1 X76.825 Y76.003 E0.00713
G1 X77.036 Y76.035 E0.00994
G1 X77.055 Y76.286 E0.01170
G1 X77.055 Y79.798 E0.16291
G1 X79.271 Y79.798 E0.10283
G1 X79.273 Y76.446 E0.15548
G1 X79.312 Y76.140 E0.01434
G1 X79.369 Y75.987 E0.00758
G1 X79.581 Y76.016 E0.00990
G1 X79.597 Y76.196 E0.00839
G1 X79.598 Y79.798 E0.16709
G1 X81.754 Y79.798 E0.10001
G1 X81.754 Y81.754 E0.09075
G1 X58.246 Y81.754 E1.09057
G1 X58.246 Y58.246 E1.09057
G1 X81.754 Y58.246 E1.09057
G1 X81.754 Y74.730 E0.76473
G1 X81.557 Y74.784 E0.00948
G1 X81.421 Y74.556 E0.01231
G1 X81.239 Y74.338 E0.01318
G1 X80.945 Y74.107 E0.01734
G1 X80.685 Y73.977 E0.01350
G1 X80.309 Y73.864 E0.01821
G1 X79.738 Y73.820 E0.02656
G1 X79.419 Y73.846 E0.01486
G1 X79.142 Y73.903 E0.01312
G1 X78.876 Y73.994 E0.01305
G1 X78.623 Y74.123 E0.01318
G1 X78.520 Y74.197 E0.00589
G1 X78.292 Y74.041 E0.01281
G1 X77.848 Y73.882 E0.02187
G1 X77.453 Y73.826 E0.01850
G1 X77.068 Y73.826 E0.01789
G1 X76.626 Y73.903 E0.02079
G1 X74.454 Y73.903 E0.10077
G1 X74.470 Y74.346 E0.02058
G1 X74.166 Y74.107 E0.01793
G1 X73.906 Y73.977 E0.01350
G1 X73.530 Y73.864 E0.01821
G1 X72.959 Y73.820 E0.02655
G1 X72.640 Y73.846 E0.01486
G1 X72.363 Y73.903 E0.01313
G1 X72.097 Y73.994 E0.01305
G1 X71.844 Y74.123 E0.01318
G1 X71.740 Y74.197 E0.00589
G1 X71.513 Y74.041 E0.01281
G1 X71.069 Y73.882 E0.02188
G1 X70.674 Y73.826 E0.01850
G1 X70.289 Y73.826 E0.01789
G1 X69.847 Y73.903 E0.02080
G1 X68.013 Y73.903 E0.08512
G1 X67.716 Y73.409 E0.02670
G1 X67.320 Y73.002 E0.02636
G1 X66.834 Y72.706 E0.02639
G1 X66.299 Y72.540 E0.02600
G1 X65.902 Y72.491 E0.01852
G1 X65.299 Y72.509 E0.02799
G1 X64.911 Y72.582 E0.01832
G1 X64.387 Y72.785 E0.02608
G1 X63.933 Y73.108 E0.02586
G1 X63.665 Y73.401 E0.01843
G1 X63.451 Y73.728 E0.01813
G1 X63.222 Y74.245 E0.02621
G1 X63.066 Y74.831 E0.02813
G1 X62.978 Y75.480 E0.03039
G1 X62.953 Y76.410 E0.04316
G1 X62.972 Y76.809 E0.01854
G1 X63.034 Y77.319 E0.02382
G1 X63.116 Y77.682 E0.01730
G1 X62.424 Y77.682 E0.03213
G1 X62.424 Y72.647 E0.23360
G1 E-3.50000 F2400.00000
G1 X57.800 Y82.200 F9000.000
G1 E3.50000 F2400.00000
G1 F1800
G1 X57.800 Y57.800 E1.13198
G1 X82.200 Y57.800 E1.13198
G1 X82.200 Y82.200 E1.13198
G1 X57.875 Y82.200 E1.12850
G1 X57.929 Y81.717 F9000.000
G1 E-3.50000 F2400.00000
G1 X65.685 Y77.784 F9000.000
G1 E3.50000 F2400.00000
G1 F1800
G1 X65.530 Y77.761 E0.00730
G1 X65.447 Y77.693 E0.00497
G1 X65.378 Y77.575 E0.00635
G1 X65.278 Y77.261 E0.01527
G1 X65.223 Y76.934 E0.01537
G1 X65.190 Y76.511 E0.01972
G1 X65.186 Y76.009 E0.02328
G1 X65.209 Y75.543 E0.02163
G1 X65.258 Y75.171 E0.01743
G1 X65.369 Y74.775 E0.01907
G1 X65.459 Y74.645 E0.00734
G1 X65.502 Y74.615 E0.00244
G1 X65.564 Y74.593 E0.00304
G1 X65.744 Y74.580 E0.00836
G1 X65.847 Y74.598 E0.00487
G1 X65.925 Y74.635 E0.00400
G1 X66.006 Y74.778 E0.00764
G1 X66.075 Y74.983 E0.01003
G1 X66.135 Y75.291 E0.01456
G1 X66.175 Y75.690 E0.01861
G1 X66.187 Y76.350 E0.03061
G1 X66.163 Y76.790 E0.02044
G1 X66.114 Y77.151 E0.01691
G1 X66.046 Y77.425 E0.01308
G1 X65.972 Y77.605 E0.00905
G1 X65.909 Y77.701 E0.00533
G1 X65.834 Y77.768 E0.00467
G1 X65.760 Y77.776 E0.00344
G1 X65.686 Y78.233 F9000.000
G1 F1800
G1 X65.468 Y78.210 E0.01018
G1 X65.253 Y78.119 E0.01081
G1 X65.081 Y77.954 E0.01106
G1 X64.968 Y77.756 E0.01059
G1 X64.843 Y77.367 E0.01896
G1 X64.780 Y76.989 E0.01779
G1 X64.744 Y76.530 E0.02134
G1 X64.739 Y76.000 E0.02461
G1 X64.764 Y75.503 E0.02307
G1 X64.818 Y75.089 E0.01938
G1 X64.899 Y74.757 E0.01585
G1 X65.031 Y74.462 E0.01496
G1 X65.154 Y74.313 E0.00901
G1 X65.298 Y74.213 E0.00809
G1 X65.473 Y74.152 E0.00862
G1 X65.766 Y74.131 E0.01363
G1 X65.982 Y74.168 E0.01019
G1 X66.144 Y74.244 E0.00830
G1 X66.306 Y74.400 E0.01042
G1 X66.416 Y74.596 E0.01042
G1 X66.507 Y74.869 E0.01334
G1 X66.577 Y75.226 E0.01690
G1 X66.621 Y75.664 E0.02041
G1 X66.634 Y76.358 E0.03218
G1 X66.608 Y76.832 E0.02204
G1 X66.553 Y77.235 E0.01888
G1 X66.472 Y77.564 E0.01571
G1 X66.368 Y77.816 E0.01263
G1 X66.249 Y77.995 E0.01001
G1 X66.109 Y78.120 E0.00868
G1 X65.902 Y78.209 E0.01048
G1 X65.761 Y78.225 E0.00659
G1 X65.578 Y78.042 F9000.000
G1 X65.694 Y77.559 F9000.000
G1 F1200
G1 X65.684 Y76.878 E0.02817
G1 F1200
G1 X65.688 Y75.357 E0.07199
G1 F1200
G1 X65.671 Y74.809 E0.02291
G1 E-3.50000 F2400.00000
G1 X62.811 Y74.282 F9000.000
G1 E3.50000 F2400.00000
G1 F1200
G1 X62.769 Y74.601 E0.00918
G1 F1200
G1 X62.724 Y75.114 E0.01025
G1 F1200
G1 X62.701 Y75.460 E0.00365
G1 X62.688 Y76.411 E0.01001
G1 F1200
G1 X62.698 Y76.834 E0.00129
G1 F1200
G1 X62.731 Y77.375 E0.00460
G1 X62.836 Y77.459 E0.00114
G1 X63.618 Y78.466 F9000.000
G1 F1200
G1 X63.636 Y78.529 E0.00018
G1 X63.709 Y78.623 E0.00032
G1 X64.042 Y79.667 F9000.000
G1 F1200
G1 X64.266 Y79.769 E0.00117
G1 X64.581 Y80.762 F9000.000
G1 F1200
G1 X64.673 Y80.748 E0.00601
G1 X64.872 Y80.779 E0.01291
G1 F1200
G1 X65.632 Y80.818 E0.04405
G1 F1200
G1 X66.209 Y80.800 E0.02875
G1 F1200
G1 X66.715 Y80.750 E0.02979
G1 F1200
G1 X66.826 Y80.732 E0.00746
G1 X67.059 Y80.776 E0.01559
G1 F1200
G1 X81.084 Y80.776 E0.82122
G1 X81.784 Y79.574 F9000.000
G1 F1200
G1 X81.783 Y75.973 E0.12485
G1 X81.766 Y75.538 E0.01508
G1 F1200
G1 X81.709 Y74.974 E0.02364
G1 X81.530 Y74.230 F9000.000
G1 F1200
G1 X81.295 Y74.064 E0.00171
G1 X80.814 Y73.145 F9000.000
G1 F1800
G1 X80.908 Y73.050 E0.00628
G1 X80.908 Y72.413 E0.02984
G1 X80.302 Y73.019 E0.04016
G1 X79.711 Y72.973 E0.02776
G1 X80.908 Y71.776 E0.07931
G1 X80.908 Y71.139 E0.02984
G1 X78.986 Y73.061 E0.12732
G1 X78.858 Y73.087 E0.00609
G1 X78.472 Y73.222 E0.01914
G1 X78.263 Y73.147 E0.01039
G1 X80.908 Y70.501 E0.17517
G1 X80.908 Y69.864 E0.02984
G1 X77.752 Y73.021 E0.20902
G1 X77.469 Y72.981 E0.01337
G1 X77.155 Y72.980 E0.01471
G1 X80.908 Y69.227 E0.24855
G1 X80.908 Y68.590 E0.02984
G1 X76.441 Y73.057 E0.29583
G1 X75.804 Y73.057 E0.02984
G1 X80.908 Y67.953 E0.33803
G1 X80.908 Y67.316 E0.02984
G1 X75.167 Y73.057 E0.38022
G1 X74.530 Y73.057 E0.02984
G1 X80.908 Y66.679 E0.42241
G1 X80.908 Y66.041 E0.02984
G1 X73.893 Y73.057 E0.46461
G1 X73.741 Y73.057 E0.00709
G1 X73.641 Y73.027 E0.00486
G1 X73.310 Y73.003 E0.01557
G1 X80.908 Y65.404 E0.50320
G1 X80.908 Y64.767 E0.02984
G1 X72.685 Y72.990 E0.54455
G1 X72.466 Y73.008 E0.01031
G1 X72.079 Y73.087 E0.01849
G1 X71.884 Y73.155 E0.00969
G1 X80.908 Y64.130 E0.59765
G1 X80.908 Y63.493 E0.02984
G1 X71.315 Y73.086 E0.63528
G1 X71.237 Y73.058 E0.00389
G1 X70.772 Y72.992 E0.02201
G1 X80.908 Y62.856 E0.67128
G1 X80.908 Y62.219 E0.02984
G1 X70.141 Y72.986 E0.71302
G1 X69.695 Y73.057 E0.02115
G1 X69.433 Y73.057 E0.01231
G1 X80.908 Y61.581 E0.75996
G1 X80.908 Y60.944 E0.02984
G1 X68.795 Y73.057 E0.80216
G1 X68.470 Y73.057 E0.01524
G1 X68.344 Y72.871 E0.01051
G1 X80.908 Y60.307 E0.83204
G1 X80.908 Y59.670 E0.02984
G1 X68.030 Y72.548 E0.85283
G1 X67.833 Y72.345 E0.01323
G1 X67.686 Y72.256 E0.00810
G1 X80.849 Y59.092 E0.87176
G1 X80.212 Y59.092 E0.02984
G1 X67.289 Y72.015 E0.85581
G1 X67.156 Y71.934 E0.00729
G1 X66.833 Y71.833 E0.01583
G1 X79.575 Y59.092 E0.84381
G1 X78.938 Y59.092 E0.02984
G1 X66.332 Y71.698 E0.83482
G1 X65.912 Y71.646 E0.01983
G1 X65.747 Y71.645 E0.00770
G1 X78.301 Y59.092 E0.83135
G1 X77.664 Y59.092 E0.02984
G1 X65.074 Y71.682 E0.83375
G1 X64.619 Y71.766 E0.02168
G1 X64.183 Y71.935 E0.02186
G1 X77.027 Y59.092 E0.85053
G1 X76.389 Y59.092 E0.02984
G1 X63.290 Y72.192 E0.86753
G1 X63.269 Y72.168 E0.00145
G1 X63.269 Y71.727 E0.02069
G1 X63.117 Y71.727 E0.00710
G1 X75.752 Y59.092 E0.83673
G1 X75.115 Y59.092 E0.02984
G1 X62.480 Y71.727 E0.83673
G1 X61.843 Y71.727 E0.02984
G1 X74.478 Y59.092 E0.83673
G1 X73.841 Y59.092 E0.02984
G1 X61.206 Y71.727 E0.83673
G1 X60.569 Y71.727 E0.02984
G1 X73.204 Y59.092 E0.83673
G1 X72.567 Y59.092 E0.02984
G1 X59.092 Y72.567 E0.89236
G1 X59.092 Y71.929 E0.02984
G1 X71.929 Y59.092 E0.85016
G1 X71.292 Y59.092 E0.02984
G1 X59.092 Y71.292 E0.80797
G1 X59.092 Y70.655 E0.02984
G1 X70.655 Y59.092 E0.76577
G1 X70.018 Y59.092 E0.02984
G1 X59.092 Y70.018 E0.72358
G1 X59.092 Y69.381 E0.02984
G1 X69.381 Y59.092 E0.68139
G1 X68.744 Y59.092 E0.02984
G1 X59.092 Y68.744 E0.63919
G1 X59.092 Y68.107 E0.02984
G1 X68.107 Y59.092 E0.59700
G1 X67.469 Y59.092 E0.02984
G1 X59.092 Y67.469 E0.55480
G1 X59.092 Y66.832 E0.02984
G1 X66.832 Y59.092 E0.51261
G1 X66.195 Y59.092 E0.02984
G1 X59.092 Y66.195 E0.47042
G1 X59.092 Y65.558 E0.02984
G1 X65.558 Y59.092 E0.42822
G1 X64.921 Y59.092 E0.02984
G1 X59.092 Y64.921 E0.38603
G1 X59.092 Y64.284 E0.02984
G1 X64.284 Y59.092 E0.34384
G1 X63.647 Y59.092 E0.02984
G1 X59.092 Y63.647 E0.30164
G1 X59.092 Y63.009 E0.02984
G1 X63.009 Y59.092 E0.25945
G1 X62.372 Y59.092 E0.02984
G1 X59.092 Y62.372 E0.21725
G1 X59.092 Y61.735 E0.02984
G1 X61.735 Y59.092 E0.17506
G1 X61.098 Y59.092 E0.02984
G1 X59.092 Y61.098 E0.13287
G1 X59.092 Y60.461 E0.02984
G1 X60.461 Y59.092 E0.09067
G1 X59.824 Y59.092 E0.02984
G1 X59.092 Y59.824 E0.04848
G1 X59.092 Y59.187 E0.02984
G1 X59.187 Y59.092 E0.00628
G1 X63.297 Y72.772 F9000.000
G1 F1200
G1 X63.093 Y72.952 E0.00124
G1 X62.905 Y73.694 F9000.000
G1 F1200
G1 X62.811 Y74.282 E0.02020
G1 E-3.50000 F2400.00000
G1 X58.573 Y73.812 F9000.000
G1 E3.50000 F2400.00000
G1 F1200
G1 X58.573 Y76.899 E0.04949
G1 X58.495 Y77.079 F9000.000
G1 F1200
G1 X58.554 Y77.459 E0.00371
G1 X58.916 Y80.776 F9000.000
G1 F1200
G1 X64.489 Y80.776 E0.32632
G1 X64.581 Y80.762 E0.00547
G1 X67.267 Y79.660 F9000.000
G1 F1200
G1 X67.506 Y79.527 E0.00145
G1 X67.756 Y78.454 F9000.000
G1 F1200
G1 X67.899 Y78.243 E0.00110
G1 X67.927 Y78.091 E0.00067
G1 E-3.50000 F2400.00000
G1 X69.959 Y75.741 F9000.000
G1 E3.50000 F2400.00000
G1 F1200
G1 X70.202 Y75.724 E0.00206
G1 X70.443 Y75.769 E0.00208
G1 E-3.50000 F2400.00000
G1 X72.539 Y75.733 F9000.000
G1 E3.50000 F2400.00000
G1 F1200
G1 X72.744 Y75.720 E0.00157
G1 X72.985 Y75.765 E0.00187
G1 X74.696 Y75.121 F9000.000
G1 F1200
G1 X74.641 Y74.853 E0.00123
G1 X74.476 Y74.665 E0.00112
G1 E-3.50000 F2400.00000
G1 X76.755 Y75.735 F9000.000
G1 E3.50000 F2400.00000
G1 F1200
G1 X76.981 Y75.729 E0.00218
G1 X77.225 Y75.776 E0.00240
G1 E-3.50000 F2400.00000
G1 X79.279 Y75.736 F9000.000
G1 E3.50000 F2400.00000
G1 F1200
G1 X79.523 Y75.720 E0.00187
G1 X79.764 Y75.765 E0.00188
G1 E-3.50000 F2400.00000
G1 Z1.000 F9000.000
G1 X58.693 Y81.307 F9000.000
G1 E3.50000 F2400.00000
G1 F1800
G1 X58.693 Y58.693 E1.04915
G1 X81.307 Y58.693 E1.04915
G1 X81.307 Y81.307 E1.04915
G1 X58.768 Y81.307 E1.04567
G1 X58.246 Y81.754 F9000.000
G1 F1800
G1 X58.246 Y58.246 E1.09057
G1 X81.754 Y58.246 E1.09057
G1 X81.754 Y81.754 E1.09057
G1 X58.321 Y81.754 E1.08709
G1 X57.800 Y82.200 F9000.000
G1 F1800
G1 X57.800 Y57.800 E1.13198
G1 X82.200 Y57.800 E1.13198
G1 X82.200 Y82.200 E1.13198
G1 X57.875 Y82.200 E1.12850
G1 X57.929 Y81.717 F9000.000
G1 X59.116 Y80.809 F9000.000
M106 S255

G1 F2400
G1 X68.775 Y80.809 E0.86968
G1 X69.137 Y80.457 E0.04547
G1 X69.325 Y80.234 E0.02626
G1 X59.116 Y80.234 E0.91919
G1 X59.116 Y79.659 E0.05178
G1 X70.042 Y79.659 E0.98373
G1 X70.149 Y79.084 E0.05268
G1 X59.116 Y79.084 E0.99339
G1 X59.116 Y78.509 E0.05178
G1 X70.632 Y78.509 E1.03689
G1 X70.609 Y77.933 E0.05183
G1 X59.116 Y77.933 E1.03480
G1 X59.116 Y77.358 E0.05178
G1 X70.586 Y77.358 E1.03271
G1 X70.562 Y76.783 E0.05183
G1 X59.116 Y76.783 E1.03062
G1 X59.116 Y76.208 E0.05178
G1 X70.539 Y76.208 E1.02853
G1 X70.516 Y75.633 E0.05183
G1 X59.116 Y75.633 E1.02644
G1 X59.116 Y75.058 E0.05178
G1 X68.865 Y75.058 E0.87778
G1 X68.857 Y74.835 E0.02004
G1 X69.087 Y74.827 E0.02071
G1 X69.153 Y74.734 E0.01027
G1 X69.281 Y74.821 E0.01389
G1 X69.406 Y74.816 E0.01133
G1 X69.410 Y74.908 E0.00827
G1 X69.600 Y75.037 E0.02069
G1 X69.586 Y75.058 E0.00225
G1 X70.469 Y75.058 E0.07943
G1 X70.381 Y74.483 E0.05238
G1 X59.116 Y74.483 E1.01429
G1 X59.116 Y73.908 E0.05178
G1 X70.245 Y73.908 E1.00201
G1 X70.048 Y73.333 E0.05472
G1 X59.116 Y73.333 E0.98432
G1 X59.116 Y72.757 E0.05178
G1 X69.776 Y72.757 E0.95980
G1 X69.601 Y72.464 E0.03075
G1 X69.403 Y72.182 E0.03102
G1 X59.116 Y72.182 E0.92620
G1 X59.116 Y71.607 E0.05178
G1 X68.875 Y71.607 E0.87865
G1 X68.659 Y71.419 E0.02577
G1 X68.366 Y71.205 E0.03269
G1 X68.081 Y71.032 E0.02998
G1 X59.354 Y71.032 E0.78575
G1 X60.065 Y70.543 E0.07765
G1 X64.663 Y70.543 E0.41401
G1 X65.312 Y70.466 E0.05886
G1 X65.782 Y70.457 E0.04234
M106 S255

G1 X69.964 Y71.895 F9000.000
M106 S255

G1 F2400
G1 X69.765 Y71.921 E0.01808
G1 X69.967 Y72.209 E0.03167
G1 X69.962 Y71.745 E0.04178
G1 X70.537 Y71.718 E0.05187
G1 X70.555 Y73.390 E0.15065
M106 S255

G1 E-3.50000 F2400.00000
G1 X75.757 Y75.530 F9000.000
G1 E3.50000 F2400.00000
M106 S255

G1 F2400
G1 X75.731 Y75.524 E0.00238
G1 X75.708 Y74.811 E0.06425
G1 X75.749 Y74.823 E0.00386
G1 X75.726 Y72.676 E0.19350
G1 X76.116 Y73.073 E0.05015
G1 X76.308 Y73.326 E0.02862
G1 X76.327 Y75.025 E0.15313
M106 S255

G1 E-3.50000 F2400.00000
G1 X77.516 Y78.538 F9000.000
G1 E3.50000 F2400.00000
M106 S255

G1 F2400
G1 X77.514 Y78.388 E0.01353
G1 X76.975 Y74.983 E0.31068
G1 X76.898 Y74.635 E0.03210
G1 X76.966 Y80.884 E0.56314
G1 X76.390 Y80.884 E0.05184
G1 X76.328 Y75.154 E0.51634
G1 X76.128 Y75.479 E0.03441
G1 X75.755 Y75.381 E0.03470
G1 X75.815 Y80.884 E0.49590
G1 X75.240 Y80.884 E0.05184
G1 X75.146 Y72.259 E0.77720
G1 X74.947 Y72.150 E0.02046
G1 X74.568 Y71.987 E0.03722
G1 X74.611 Y75.975 E0.35944
G1 X74.576 Y75.538 E0.03952
G1 X74.031 Y75.538 E0.04914
G1 X73.990 Y71.817 E0.33528
G1 X73.414 Y71.734 E0.05247
G1 X73.514 Y80.884 E0.82456
G1 X72.938 Y80.884 E0.05184
G1 X72.839 Y71.721 E0.82573
G1 X72.264 Y71.778 E0.05205
G1 X72.363 Y80.884 E0.82057
G1 X71.788 Y80.884 E0.05184
G1 X71.731 Y75.685 E0.46850
G1 X72.083 Y75.074 E0.06350
G1 X71.880 Y74.953 E0.02130
G1 X71.798 Y74.764 E0.01852
G1 X71.721 Y74.795 E0.00744
G1 X71.689 Y71.799 E0.27001
G1 X71.360 Y71.799 E0.02959
G1 X71.113 Y71.759 E0.02258
G1 X71.212 Y80.884 E0.82227
G1 X70.637 Y80.884 E0.05184
G1 X70.619 Y79.218 E0.15016
G1 X70.594 Y79.218 E0.00223
G1 X70.341 Y80.575 E0.12443
G1 X70.058 Y80.575 E0.02546
G1 X70.062 Y80.884 E0.02784
G1 X69.486 Y80.884 E0.05184
G1 X69.485 Y80.734 E0.01348
M106 S255

G1 X73.514 Y80.884 F9000.000
M106 S255

G1 F2400
G1 X74.089 Y80.884 E0.05184
G1 X74.031 Y75.560 E0.47977
G1 X74.080 Y75.981 E0.03817
G1 X74.610 Y75.929 E0.04804
G1 X74.664 Y80.884 E0.44652
M106 S255

G1 X78.057 Y80.884 F9000.000
M106 S255

G1 F2400
G1 X78.088 Y78.939 E0.15885
G1 X78.160 Y78.939 E0.00584
G1 X78.095 Y78.528 E0.03391
M106 S255

G1 E-3.50000 F2400.00000
G1 X78.147 Y75.295 F9000.000
G1 E3.50000 F2400.00000
M106 S255

G1 F2400
G1 X78.079 Y75.116 E0.01564
G1 X78.150 Y75.087 E0.00627
G1 X78.203 Y71.799 E0.26849
G1 X78.525 Y71.799 E0.02627
G1 X78.530 Y71.880 E0.00664
G1 X78.753 Y71.835 E0.01855
G1 X78.700 Y75.127 E0.26887
M106 S255

G1 E-3.50000 F2400.00000
G1 X75.453 Y71.799 F9000.000
G1 E3.50000 F2400.00000
M106 S255

G1 F2400
G1 X75.450 Y71.949 E0.01221
G1 X75.770 Y72.156 E0.03109
G1 X75.994 Y72.332 E0.02328
G1 X76.003 Y71.799 E0.04347
G1 X76.389 Y71.799 E0.03151
G1 X76.553 Y71.771 E0.01365
G1 X76.536 Y72.867 E0.08953
G1 X76.750 Y73.147 E0.02879
G1 X77.073 Y73.687 E0.05136
G1 X77.104 Y71.720 E0.16062
G1 X77.654 Y71.734 E0.04491
G1 X77.593 Y75.523 E0.30939
G1 X78.093 Y78.678 E0.26084
G1 X78.149 Y75.146 E0.28844
G1 X78.398 Y75.882 E0.06344
G1 X78.696 Y75.365 E0.04866
G1 X78.607 Y80.884 E0.45064
G1 X79.157 Y80.884 E0.04492
G1 X79.304 Y71.743 E0.74648
G1 X79.802 Y71.717 E0.04071
G1 X79.855 Y71.718 E0.00429
G1 X79.708 Y80.884 E0.74846
G1 X80.258 Y80.884 E0.04492
G1 X80.404 Y71.756 E0.74543
G1 X80.810 Y71.826 E0.03364
G1 X80.810 Y75.265 E0.28075
G1 X80.755 Y75.265 E0.00451
G1 X80.810 Y75.565 E0.02492
G1 X80.808 Y80.884 E0.43428
M106 S255

G1 E-3.50000 F2400.00000
G1 X80.908 Y61.971 F9000.000
G1 E3.50000 F2400.00000
G1 F2400
G1 X78.029 Y59.092 E0.18893
G1 X74.873 Y59.092 E0.14642
G1 X80.908 Y65.127 E0.39600
G1 X80.908 Y68.284 E0.14642
G1 X71.716 Y59.092 E0.60308
G1 X68.560 Y59.092 E0.14642
G1 X80.908 Y71.449 E0.81045
G1 X80.597 Y71.393 E0.01470
G1 X80.087 Y71.346 E0.02375
G1 X79.480 Y71.353 E0.02815
G1 X78.922 Y71.423 E0.02609
G1 X78.237 Y71.423 E0.03178
G1 X77.665 Y71.353 E0.02671
G1 X65.404 Y59.092 E0.80446
G1 X62.248 Y59.092 E0.14642
G1 X74.579 Y71.423 E0.80905
G1 X73.992 Y71.423 E0.02722
G1 X73.559 Y71.363 E0.02031
G1 X73.071 Y71.341 E0.02267
G1 X72.515 Y71.370 E0.02582
G1 X72.143 Y71.423 E0.01743
G1 X71.458 Y71.423 E0.03178
G1 X71.416 Y71.416 E0.00195
G1 X59.092 Y59.092 E0.80861
G1 X59.092 Y62.248 E0.14642
G1 X66.989 Y70.145 E0.51814
G1 X66.451 Y70.048 E0.02537
G1 X65.752 Y70.006 E0.03250
G1 X65.406 Y70.015 E0.01606
G1 X64.748 Y70.093 E0.03074
G1 X63.780 Y70.093 E0.04488
G1 X59.092 Y65.404 E0.30761
G1 X59.092 Y68.560 E0.14642
G1 X60.624 Y70.093 E0.10054
G1 X60.032 Y70.093 E0.02745
G1 X59.186 Y70.674 E0.04763
G1 X59.186 Y68.655 E0.09369
G1 E-3.50000 F2400.00000
G1 Z1.250 F9000.000
G1 X58.693 Y81.307 F9000.000
G1 E3.50000 F2400.00000
G1 F1800
G1 X58.693 Y58.693 E1.04915
G1 X81.307 Y58.693 E1.04915
G1 X81.307 Y81.307 E1.04915
G1 X58.768 Y81.307 E1.04567
G1 X58.246 Y81.754 F9000.000
G1 F1800
G1 X58.246 Y58.246 E1.09057
G1 X81.754 Y58.246 E1.09057
G1 X81.754 Y81.754 E1.09057
G1 X58.321 Y81.754 E1.08709
G1 X57.800 Y82.200 F9000.000
G1 F1800
G1 X57.800 Y57.800 E1.13198
G1 X82.200 Y57.800 E1.13198
G1 X82.200 Y82.200 E1.13198
G1 X57.875 Y82.200 E1.12850
G1 X57.929 Y81.717 F9000.000
G1 X59.092 Y71.216 F9000.000
G1 F1800
G1 X59.187 Y71.121 E0.00631
G1 X60.171 Y70.444 E0.05627
G1 X60.505 Y70.444 E0.01573
G1 X59.092 Y71.857 E0.09416
G1 X59.092 Y72.498 E0.03021
G1 X61.146 Y70.444 E0.13688
G1 X61.787 Y70.444 E0.03021
G1 X59.092 Y73.140 E0.17960
G1 X59.092 Y73.781 E0.03021
G1 X62.428 Y70.444 E0.22232
G1 X63.069 Y70.444 E0.03021
G1 X59.092 Y74.422 E0.26504
G1 X59.092 Y75.063 E0.03021
G1 X63.710 Y70.444 E0.30776
G1 X64.351 Y70.444 E0.03021
G1 X59.092 Y75.704 E0.35048
G1 X59.092 Y76.345 E0.03021
G1 X65.030 Y70.406 E0.39571
G1 X65.719 Y70.359 E0.03254
G1 X59.092 Y76.986 E0.44162
G1 X59.092 Y77.627 E0.03021
G1 X66.329 Y70.390 E0.48224
G1 X66.877 Y70.483 E0.02621
G1 X59.092 Y78.268 E0.51878
G1 X59.092 Y78.909 E0.03021
G1 X67.378 Y70.624 E0.55213
G1 X67.830 Y70.813 E0.02309
G1 X59.092 Y79.551 E0.58225
G1 X59.092 Y80.192 E0.03021
G1 X68.244 Y71.040 E0.60984
G1 X68.623 Y71.302 E0.02171
G1 X59.092 Y80.833 E0.63511
G1 X59.092 Y80.908 E0.00356
G1 X59.657 Y80.908 E0.02665
G1 X68.966 Y71.599 E0.62031
G1 X69.137 Y71.775 E0.01154
G1 X69.432 Y71.775 E0.01390
G1 X60.298 Y80.908 E0.60861
G1 X60.939 Y80.908 E0.03021
G1 X70.139 Y71.709 E0.61301
G1 X70.788 Y71.701 E0.03059
G1 X61.580 Y80.908 E0.61356
G1 X62.222 Y80.908 E0.03021
G1 X71.364 Y71.765 E0.60923
G1 X71.996 Y71.775 E0.02977
G1 X62.863 Y80.908 E0.60861
G1 X63.504 Y80.908 E0.03021
G1 X68.959 Y75.454 E0.36348
G1 X68.938 Y74.936 E0.02440
G1 X69.142 Y74.926 E0.00961
G1 X69.194 Y74.852 E0.00428
G1 X69.291 Y74.918 E0.00556
G1 X69.384 Y74.914 E0.00436
G1 X69.386 Y74.984 E0.00329
G1 X69.411 Y75.001 E0.00143
G1 X72.706 Y71.706 E0.21952
G1 X73.070 Y71.693 E0.01716
G1 X73.351 Y71.702 E0.01329
G1 X64.145 Y80.908 E0.61348
G1 X64.786 Y80.908 E0.03021
G1 X73.925 Y71.770 E0.60895
G1 X74.561 Y71.775 E0.02997
G1 X65.427 Y80.908 E0.60861
G1 X66.068 Y80.908 E0.03021
G1 X75.202 Y71.775 E0.60861
G1 X75.843 Y71.775 E0.03021
G1 X66.709 Y80.908 E0.60861
G1 X67.350 Y80.908 E0.03021
G1 X76.497 Y71.762 E0.60946
G1 X76.812 Y71.718 E0.01499
G1 X77.205 Y71.695 E0.01857
G1 X67.991 Y80.908 E0.61396
G1 X68.633 Y80.908 E0.03021
G1 X77.821 Y71.720 E0.61227
G1 X78.193 Y71.775 E0.01771
G1 X78.407 Y71.775 E0.01010
G1 X69.274 Y80.908 E0.60861
G1 X69.915 Y80.908 E0.03021
G1 X75.818 Y75.005 E0.39333
G1 X75.828 Y75.358 E0.01661
G1 X76.045 Y75.420 E0.01060
G1 X70.556 Y80.908 E0.36574
G1 X71.197 Y80.908 E0.03021
G1 X80.382 Y71.723 E0.61207
G1 X80.776 Y71.782 E0.01877
G1 X80.908 Y71.813 E0.00638
G1 X80.908 Y71.838 E0.00120
G1 X71.838 Y80.908 E0.60439
G1 X72.479 Y80.908 E0.03021
G1 X78.241 Y75.147 E0.38393
G1 X78.348 Y75.451 E0.01518
G1 X78.562 Y75.467 E0.01010
G1 X73.120 Y80.908 E0.36258
G1 X73.761 Y80.908 E0.03021
G1 X80.908 Y73.761 E0.47623
G1 X80.908 Y74.402 E0.03021
G1 X74.402 Y80.908 E0.43351
G1 X75.044 Y80.908 E0.03021
G1 X80.908 Y75.044 E0.39079
G1 X80.908 Y75.344 E0.01416
G1 X80.863 Y75.344 E0.00211
G1 X80.908 Y75.588 E0.01167
G1 X80.908 Y75.685 E0.00457
G1 X75.685 Y80.908 E0.34807
G1 X76.326 Y80.908 E0.03021
G1 X80.908 Y76.326 E0.30535
G1 X80.908 Y76.967 E0.03021
G1 X76.967 Y80.908 E0.26264
G1 X77.608 Y80.908 E0.03021
G1 X80.908 Y77.608 E0.21992
G1 X80.908 Y78.249 E0.03021
G1 X78.249 Y80.908 E0.17720
G1 X78.890 Y80.908 E0.03021
G1 X80.908 Y78.890 E0.13448
G1 X80.908 Y79.531 E0.03021
G1 X79.531 Y80.908 E0.09176
G1 X80.172 Y80.908 E0.03021
G1 X80.908 Y80.172 E0.04904
G1 X80.908 Y80.813 E0.03021
G1 X80.813 Y80.908 E0.00632
G1 X78.651 Y75.377 F9000.000
G1 F1800
G1 X80.908 Y73.120 E0.15040
G1 X80.908 Y72.479 E0.03021
G1 X78.386 Y75.001 E0.16807
G1 X78.368 Y74.991 E0.00101
G1 X78.352 Y75.016 E0.00140
G1 X78.098 Y75.114 E0.01282
G1 X78.146 Y75.241 E0.00639
G1 X76.279 Y75.186 F9000.000
G1 F1800
G1 X79.770 Y71.694 E0.23265
G1 X79.341 Y71.719 E0.02026
G1 X79.066 Y71.757 E0.01307
G1 X75.911 Y74.912 E0.21025
G1 X75.714 Y74.854 E0.00966
G1 X75.723 Y75.100 E0.01161
G1 X78.059 Y71.410 F9000.000
G1 F2400
G1 X80.908 Y68.560 E0.18695
G1 X80.908 Y65.404 E0.14642
G1 X74.889 Y71.423 E0.39490
G1 X73.898 Y71.423 E0.04600
G1 X73.464 Y71.363 E0.02031
G1 X72.976 Y71.341 E0.02267
G1 X72.420 Y71.370 E0.02582
G1 X72.048 Y71.423 E0.01743
G1 X71.733 Y71.423 E0.01462
G1 X80.908 Y62.248 E0.60198
G1 X80.908 Y59.092 E0.14642
G1 X68.888 Y71.112 E0.78864
G1 X68.520 Y70.838 E0.02128
G1 X68.175 Y70.628 E0.01877
G1 X67.816 Y70.449 E0.01857
G1 X67.451 Y70.303 E0.01826
G1 X67.083 Y70.189 E0.01788
G1 X66.735 Y70.109 E0.01655
G1 X77.752 Y59.092 E0.72281
G1 X74.596 Y59.092 E0.14642
G1 X63.595 Y70.093 E0.72176
G1 X60.439 Y70.093 E0.14642
G1 X71.440 Y59.092 E0.72176
G1 X68.284 Y59.092 E0.14642
G1 X59.092 Y68.284 E0.60308
G1 X59.092 Y65.127 E0.14642
G1 X65.127 Y59.092 E0.39600
G1 X61.971 Y59.092 E0.14642
G1 X59.092 Y61.971 E0.18893
G1 X59.092 Y59.186 E0.12920
G1 X61.877 Y59.186 E0.12920
G1 E-3.50000 F2400.00000
G1 Z1.500 F9000.000
G1 X58.693 Y81.307 F9000.000
G1 E3.50000 F2400.00000
G1 F1800
G1 X58.693 Y58.693 E1.04915
G1 X81.307 Y58.693 E1.04915
G1 X81.307 Y81.307 E1.04915
G1 X58.768 Y81.307 E1.04567
G1 X58.246 Y81.754 F9000.000
G1 F1800
G1 X58.246 Y58.246 E1.09057
G1 X81.754 Y58.246 E1.09057
G1 X81.754 Y81.754 E1.09057
G1 X58.321 Y81.754 E1.08709
G1 X57.800 Y82.200 F9000.000
G1 F1800
G1 X57.800 Y57.800 E1.13198
G1 X82.200 Y57.800 E1.13198
G1 X82.200 Y82.200 E1.13198
G1 X57.875 Y82.200 E1.12850
G1 X57.929 Y81.717 F9000.000
G1 X59.186 Y68.655 F9000.000
G1 F2400
G1 X59.186 Y70.674 E0.09369
G1 X60.032 Y70.093 E0.04763
G1 X60.624 Y70.093 E0.02745
G1 X59.092 Y68.560 E0.10054
G1 X59.092 Y65.404 E0.14642
G1 X63.780 Y70.093 E0.30761
G1 X64.748 Y70.093 E0.04488
G1 X65.406 Y70.015 E0.03074
G1 X65.752 Y70.006 E0.01606
G1 X66.451 Y70.048 E0.03250
G1 X66.989 Y70.145 E0.02537
G1 X59.092 Y62.248 E0.51814
G1 X59.092 Y59.092 E0.14642
G1 X71.416 Y71.416 E0.80861
G1 X71.458 Y71.423 E0.00195
G1 X72.143 Y71.423 E0.03178
G1 X72.515 Y71.370 E0.01743
G1 X73.071 Y71.341 E0.02582
G1 X73.559 Y71.363 E0.02267
G1 X73.992 Y71.423 E0.02031
G1 X74.579 Y71.423 E0.02723
G1 X62.248 Y59.092 E0.80905
G1 X65.404 Y59.092 E0.14642
G1 X77.666 Y71.353 E0.80447
G1 X78.237 Y71.423 E0.02671
G1 X78.922 Y71.423 E0.03178
G1 X79.480 Y71.353 E0.02609
G1 X80.087 Y71.346 E0.02815
G1 X80.597 Y71.393 E0.02375
G1 X80.908 Y71.449 E0.01470
G1 X68.560 Y59.092 E0.81046
G1 X71.716 Y59.092 E0.14642
G1 X80.908 Y68.284 E0.60308
G1 X80.908 Y65.127 E0.14642
G1 X74.873 Y59.092 E0.39600
G1 X78.029 Y59.092 E0.14642
G1 X80.908 Y61.971 E0.18893
G1 X80.908 Y71.907 F9000.000
G1 F1800
G1 X80.813 Y71.813 E0.00631
G1 X80.438 Y71.740 E0.01797
G1 X80.064 Y71.704 E0.01767
G1 X80.908 Y72.548 E0.05614
G1 X80.908 Y73.188 E0.03011
G1 X79.424 Y71.704 E0.09871
G1 X78.858 Y71.777 E0.02687
G1 X80.908 Y73.828 E0.13639
G1 X80.908 Y74.468 E0.03011
G1 X78.215 Y71.775 E0.17915
G1 X77.503 Y71.702 E0.03370
G1 X80.908 Y75.108 E0.22657
G1 X80.908 Y75.439 E0.01557
G1 X80.863 Y75.439 E0.00211
G1 X80.908 Y75.748 E0.01469
G1 X76.866 Y71.705 E0.26894
G1 X76.295 Y71.775 E0.02703
G1 X80.908 Y76.388 E0.30689
G1 X80.908 Y77.028 E0.03011
G1 X75.655 Y71.775 E0.34947
G1 X75.015 Y71.775 E0.03011
G1 X78.309 Y75.069 E0.21916
G1 X78.193 Y75.114 E0.00588
G1 X78.348 Y75.545 E0.02153
G1 X78.636 Y75.567 E0.01361
G1 X78.699 Y75.459 E0.00590
G1 X80.908 Y77.668 E0.14697
G1 X80.908 Y78.308 E0.03011
G1 X74.375 Y71.775 E0.43463
G1 X73.860 Y71.775 E0.02424
G1 X73.709 Y71.749 E0.00719
G1 X80.908 Y78.948 E0.47893
G1 X80.908 Y79.588 E0.03011
G1 X76.331 Y75.011 E0.30452
G1 X76.083 Y75.403 E0.02183
G1 X80.908 Y80.228 E0.32100
G1 X80.908 Y80.868 E0.03011
G1 X71.815 Y71.775 E0.60495
G1 X71.319 Y71.775 E0.02332
G1 X71.145 Y71.745 E0.00829
G1 X80.308 Y80.908 E0.60957
G1 X79.668 Y80.908 E0.03011
G1 X70.453 Y71.693 E0.61303
G1 X69.849 Y71.729 E0.02850
G1 X79.028 Y80.908 E0.61068
G1 X78.388 Y80.908 E0.03011
G1 X69.255 Y71.775 E0.60762
G1 X69.042 Y71.775 E0.00999
G1 X68.845 Y71.572 E0.01331
G1 X68.569 Y71.331 E0.01722
G1 X68.272 Y71.115 E0.01729
G1 X67.959 Y70.924 E0.01725
G1 X67.581 Y70.741 E0.01977
G1 X77.748 Y80.908 E0.67639
G1 X77.108 Y80.908 E0.03011
G1 X66.653 Y70.453 E0.69555
G1 X66.302 Y70.396 E0.01673
G1 X65.925 Y70.365 E0.01777
G1 X76.468 Y80.908 E0.70138
G1 X75.828 Y80.908 E0.03011
G1 X65.290 Y70.371 E0.70103
G1 X64.719 Y70.439 E0.02707
G1 X75.188 Y80.908 E0.69646
G1 X74.548 Y80.908 E0.03011
G1 X64.084 Y70.444 E0.69613
G1 X63.444 Y70.444 E0.03011
G1 X73.908 Y80.908 E0.69613
G1 X73.268 Y80.908 E0.03011
G1 X62.804 Y70.444 E0.69613
G1 X62.164 Y70.444 E0.03011
G1 X72.628 Y80.908 E0.69613
G1 X71.988 Y80.908 E0.03011
G1 X61.524 Y70.444 E0.69613
G1 X60.883 Y70.444 E0.03011
G1 X71.348 Y80.908 E0.69613
G1 X70.708 Y80.908 E0.03011
G1 X60.243 Y70.444 E0.69613
G1 X60.076 Y70.444 E0.00786
G1 X59.796 Y70.637 E0.01600
G1 X70.067 Y80.908 E0.68331
G1 X69.427 Y80.908 E0.03011
G1 X59.417 Y70.898 E0.66596
G1 X59.092 Y71.121 E0.01856
G1 X59.092 Y71.213 E0.00429
G1 X68.787 Y80.908 E0.64501
G1 X68.147 Y80.908 E0.03011
G1 X59.092 Y71.853 E0.60243
G1 X59.092 Y72.493 E0.03011
G1 X67.507 Y80.908 E0.55985
G1 X66.867 Y80.908 E0.03011
G1 X59.092 Y73.133 E0.51727
G1 X59.092 Y73.773 E0.03011
G1 X66.227 Y80.908 E0.47469
G1 X65.587 Y80.908 E0.03011
G1 X59.092 Y74.413 E0.43211
G1 X59.092 Y75.053 E0.03011
G1 X64.947 Y80.908 E0.38953
G1 X64.307 Y80.908 E0.03011
G1 X59.092 Y75.693 E0.34695
G1 X59.092 Y76.333 E0.03011
G1 X63.667 Y80.908 E0.30437
G1 X63.027 Y80.908 E0.03011
G1 X59.092 Y76.973 E0.26179
G1 X59.092 Y77.613 E0.03011
G1 X62.387 Y80.908 E0.21921
G1 X61.747 Y80.908 E0.03011
G1 X59.092 Y78.253 E0.17663
G1 X59.092 Y78.893 E0.03011
G1 X61.107 Y80.908 E0.13405
G1 X60.467 Y80.908 E0.03011
G1 X59.092 Y79.533 E0.09147
G1 X59.092 Y80.173 E0.03011
G1 X59.827 Y80.908 E0.04889
G1 X59.187 Y80.908 E0.03011
G1 X59.092 Y80.813 E0.00631
G1 X76.178 Y75.498 F9000.000
G1 F1800
G1 X76.150 Y75.544 E0.00256
G1 X75.828 Y75.452 E0.01572
G1 X75.819 Y75.139 E0.01476
G1 X72.407 Y71.726 E0.22702
G1 X73.014 Y71.694 E0.02861
G1 X76.400 Y75.080 E0.22528
G1 E-3.50000 F2400.00000
G1 Z1.750 F9000.000
G1 X58.693 Y81.307 F9000.000
G1 E3.50000 F2400.00000
G1 F1336.05
G1 X58.693 Y58.693 E1.04915
G1 X81.307 Y58.693 E1.04915
G1 X81.307 Y81.307 E1.04915
G1 X58.768 Y81.307 E1.04567
G1 X58.246 Y81.754 F9000.000
G1 F1336.05
G1 X58.246 Y58.246 E1.09057
G1 X81.754 Y58.246 E1.09057
G1 X81.754 Y81.754 E1.09057
G1 X58.321 Y81.754 E1.08709
G1 X57.800 Y82.200 F9000.000
G1 F1800
G1 X57.800 Y57.800 E1.13198
G1 X82.200 Y57.800 E1.13198
G1 X82.200 Y82.200 E1.13198
G1 X57.875 Y82.200 E1.12850
G1 X57.929 Y81.717 F9000.000
G1 X78.029 Y80.908 F9000.000
G1 F1781.41
G1 X80.908 Y78.029 E0.18893
G1 X80.908 Y74.873 E0.14642
G1 X74.873 Y80.908 E0.39600
G1 X71.716 Y80.908 E0.14642
G1 X80.908 Y71.716 E0.60308
G1 X80.908 Y68.560 E0.14642
G1 X68.560 Y80.908 E0.81015
G1 X65.404 Y80.908 E0.14642
G1 X80.908 Y65.404 E1.01722
G1 X80.908 Y62.248 E0.14642
G1 X62.248 Y80.908 E1.22429
G1 X59.092 Y80.908 E0.14642
G1 X80.908 Y59.092 E1.43137
G1 X77.752 Y59.092 E0.14642
G1 X59.092 Y77.752 E1.22429
G1 X59.092 Y74.596 E0.14642
G1 X74.596 Y59.092 E1.01722
G1 X71.440 Y59.092 E0.14642
G1 X59.092 Y71.440 E0.81015
G1 X59.092 Y68.284 E0.14642
G1 X68.284 Y59.092 E0.60308
G1 X65.127 Y59.092 E0.14642
G1 X59.092 Y65.127 E0.39600
G1 X59.092 Y61.971 E0.14642
G1 X61.971 Y59.092 E0.18893
G1 E-3.50000 F2400.00000
G1 Z2.000 F9000.000
G1 X58.693 Y81.307 F9000.000
G1 E3.50000 F2400.00000
G1 F1336.05
G1 X58.693 Y58.693 E1.04915
G1 X81.307 Y58.693 E1.04915
G1 X81.307 Y81.307 E1.04915
G1 X58.768 Y81.307 E1.04567
G1 X58.246 Y81.754 F9000.000
G1 F1336.05
G1 X58.246 Y58.246 E1.09057
G1 X81.754 Y58.246 E1.09057
G1 X81.754 Y81.754 E1.09057
G1 X58.321 Y81.754 E1.08709
G1 X57.800 Y82.200 F9000.000
G1 F1800
G1 X57.800 Y57.800 E1.13198
G1 X82.200 Y57.800 E1.13198
G1 X82.200 Y82.200 E1.13198
G1 X57.875 Y82.200 E1.12850
G1 X57.929 Y81.717 F9000.000
G1 X59.092 Y78.029 F9000.000
G1 F1781.41
G1 X61.971 Y80.908 E0.18893
G1 X65.127 Y80.908 E0.14642
G1 X59.092 Y74.873 E0.39600
G1 X59.092 Y71.716 E0.14642
G1 X68.284 Y80.908 E0.60308
G1 X71.440 Y80.908 E0.14642
G1 X59.092 Y68.560 E0.81015
G1 X59.092 Y65.404 E0.14642
G1 X74.596 Y80.908 E1.01722
G1 X77.752 Y80.908 E0.14642
G1 X59.092 Y62.248 E1.22430
G1 X59.092 Y59.092 E0.14642
G1 X80.908 Y80.908 E1.43137
G1 X80.908 Y77.752 E0.14642
G1 X62.248 Y59.092 E1.22430
G1 X65.404 Y59.092 E0.14642
G1 X80.908 Y74.596 E1.01722
G1 X80.908 Y71.440 E0.14642
G1 X68.560 Y59.092 E0.81015
G1 X71.716 Y59.092 E0.14642
G1 X80.908 Y68.284 E0.60308
G1 X80.908 Y65.127 E0.14642
G1 X74.873 Y59.092 E0.39600
G1 X78.029 Y59.092 E0.14642
G1 X80.908 Y61.971 E0.18893
G1 E-3.50000 F2400.00000
G1 Z2.250 F9000.000
G1 X58.693 Y81.307 F9000.000
G1 E3.50000 F2400.00000
G1 F1336.05
G1 X58.693 Y58.693 E1.04915
G1 X81.307 Y58.693 E1.04915
G1 X81.307 Y81.307 E1.04915
G1 X58.768 Y81.307 E1.04567
G1 X58.246 Y81.754 F9000.000
G1 F1336.05
G1 X58.246 Y58.246 E1.09057
G1 X81.754 Y58.246 E1.09057
G1 X81.754 Y81.754 E1.09057
G1 X58.321 Y81.754 E1.08709
G1 X57.800 Y82.200 F9000.000
G1 F1800
G1 X57.800 Y57.800 E1.13198
G1 X82.200 Y57.800 E1.13198
G1 X82.200 Y82.200 E1.13198
G1 X57.875 Y82.200 E1.12850
G1 X57.929 Y81.717 F9000.000
G1 X78.029 Y80.908 F9000.000
G1 F1781.41
G1 X80.908 Y78.029 E0.18893
G1 X80.908 Y74.873 E0.14642
G1 X74.873 Y80.908 E0.39600
G1 X71.716 Y80.908 E0.14642
G1 X80.908 Y71.716 E0.60308
G1 X80.908 Y68.560 E0.14642
G1 X68.560 Y80.908 E0.81015
G1 X65.404 Y80.908 E0.14642
G1 X80.908 Y65.404 E1.01722
G1 X80.908 Y62.248 E0.14642
G1 X62.248 Y80.908 E1.22429
G1 X59.092 Y80.908 E0.14642
G1 X80.908 Y59.092 E1.43137
G1 X77.752 Y59.092 E0.14642
G1 X59.092 Y77.752 E1.22429
G1 X59.092 Y74.596 E0.14642
G1 X74.596 Y59.092 E1.01722
G1 X71.440 Y59.092 E0.14642
G1 X59.092 Y71.440 E0.81015
G1 X59.092 Y68.284 E0.14642
G1 X68.284 Y59.092 E0.60308
G1 X65.127 Y59.092 E0.14642
G1 X59.092 Y65.127 E0.39600
G1 X59.092 Y61.971 E0.14642
G1 X61.971 Y59.092 E0.18893
G1 E-3.50000 F2400.00000
G1 Z2.500 F9000.000
G1 X58.693 Y81.307 F9000.000
G1 E3.50000 F2400.00000
G1 F1800
G1 X58.693 Y58.693 E1.04915
G1 X81.307 Y58.693 E1.04915
G1 X81.307 Y81.307 E1.04915
G1 X58.768 Y81.307 E1.04567
G1 X58.246 Y81.754 F9000.000
G1 F1800
G1 X58.246 Y58.246 E1.09057
G1 X81.754 Y58.246 E1.09057
G1 X81.754 Y81.754 E1.09057
G1 X58.321 Y81.754 E1.08709
G1 X57.800 Y82.200 F9000.000
G1 F1800
G1 X57.800 Y57.800 E1.13198
G1 X82.200 Y57.800 E1.13198
G1 X82.200 Y82.200 E1.13198
G1 X57.875 Y82.200 E1.12850
G1 X57.929 Y81.717 F9000.000
G1 X59.244 Y80.862 F9000.000
M106 S255

G1 F2400
G1 X59.138 Y80.756 E0.01249
G1 X59.138 Y79.970 E0.06569
G1 X60.030 Y80.862 E0.10540
G1 X60.816 Y80.862 E0.06569
G1 X59.138 Y79.184 E0.19830
G1 X59.138 Y78.398 E0.06569
G1 X61.602 Y80.862 E0.29119
G1 X62.388 Y80.862 E0.06569
G1 X59.138 Y77.612 E0.38409
G1 X59.138 Y76.826 E0.06569
G1 X63.174 Y80.862 E0.47699
G1 X63.961 Y80.862 E0.06569
G1 X59.138 Y76.039 E0.56988
G1 X59.138 Y75.253 E0.06569
G1 X64.747 Y80.862 E0.66278
G1 X65.533 Y80.862 E0.06569
G1 X59.138 Y74.467 E0.75567
G1 X59.138 Y73.681 E0.06569
G1 X66.319 Y80.862 E0.84857
G1 X67.105 Y80.862 E0.06569
G1 X59.138 Y72.895 E0.94146
G1 X59.138 Y72.109 E0.06569
G1 X67.891 Y80.862 E1.03436
G1 X68.677 Y80.862 E0.06569
G1 X59.138 Y71.323 E1.12726
G1 X59.138 Y70.537 E0.06569
G1 X69.463 Y80.862 E1.22015
G1 X70.249 Y80.862 E0.06569
G1 X59.138 Y69.751 E1.31305
G1 X59.138 Y68.964 E0.06569
G1 X71.036 Y80.862 E1.40594
G1 X71.822 Y80.862 E0.06569
G1 X59.138 Y68.178 E1.49884
G1 X59.138 Y67.392 E0.06569
G1 X72.608 Y80.862 E1.59173
G1 X73.394 Y80.862 E0.06569
G1 X59.138 Y66.606 E1.68463
G1 X59.138 Y65.820 E0.06569
G1 X74.180 Y80.862 E1.77752
G1 X74.966 Y80.862 E0.06569
G1 X59.138 Y65.034 E1.87042
G1 X59.138 Y64.248 E0.06569
G1 X75.752 Y80.862 E1.96332
G1 X76.538 Y80.862 E0.06569
G1 X59.138 Y63.462 E2.05621
G1 X59.138 Y62.676 E0.06569
G1 X77.324 Y80.862 E2.14911
G1 X78.111 Y80.862 E0.06569
G1 X59.138 Y61.889 E2.24200
G1 X59.138 Y61.103 E0.06569
G1 X78.897 Y80.862 E2.33490
G1 X79.683 Y80.862 E0.06569
G1 X59.138 Y60.317 E2.42779
G1 X59.138 Y59.531 E0.06569
G1 X80.469 Y80.862 E2.52069
G1 X80.862 Y80.862 E0.03284
G1 X80.862 Y80.469 E0.03285
G1 X59.531 Y59.138 E2.52069
G1 X60.317 Y59.138 E0.06569
G1 X80.862 Y79.683 E2.42779
G1 X80.862 Y78.897 E0.06569
G1 X61.103 Y59.138 E2.33489
G1 X61.889 Y59.138 E0.06569
G1 X80.862 Y78.111 E2.24200
G1 X80.862 Y77.324 E0.06569
G1 X62.676 Y59.138 E2.14910
G1 X63.462 Y59.138 E0.06569
G1 X80.862 Y76.538 E2.05621
G1 X80.862 Y75.752 E0.06569
G1 X64.248 Y59.138 E1.96331
G1 X65.034 Y59.138 E0.06569
G1 X80.862 Y74.966 E1.87042
G1 X80.862 Y74.180 E0.06569
G1 X65.820 Y59.138 E1.77752
G1 X66.606 Y59.138 E0.06569
G1 X80.862 Y73.394 E1.68462
G1 X80.862 Y72.608 E0.06569
G1 X67.392 Y59.138 E1.59173
G1 X68.178 Y59.138 E0.06569
G1 X80.862 Y71.822 E1.49883
G1 X80.862 Y71.036 E0.06569
G1 X68.964 Y59.138 E1.40594
G1 X69.751 Y59.138 E0.06569
G1 X80.862 Y70.249 E1.31304
G1 X80.862 Y69.463 E0.06569
G1 X70.537 Y59.138 E1.22015
G1 X71.323 Y59.138 E0.06569
G1 X80.862 Y68.677 E1.12725
G1 X80.862 Y67.891 E0.06569
G1 X72.109 Y59.138 E1.03436
G1 X72.895 Y59.138 E0.06569
G1 X80.862 Y67.105 E0.94146
G1 X80.862 Y66.319 E0.06569
G1 X73.681 Y59.138 E0.84857
G1 X74.467 Y59.138 E0.06569
G1 X80.862 Y65.533 E0.75567
G1 X80.862 Y64.747 E0.06569
G1 X75.253 Y59.138 E0.66277
G1 X76.039 Y59.138 E0.06569
G1 X80.862 Y63.961 E0.56988
G1 X80.862 Y63.174 E0.06569
G1 X76.826 Y59.138 E0.47698
G1 X77.612 Y59.138 E0.06569
G1 X80.862 Y62.388 E0.38409
G1 X80.862 Y61.602 E0.06569
G1 X78.398 Y59.138 E0.29119
G1 X79.184 Y59.138 E0.06569
G1 X80.862 Y60.816 E0.19830
G1 X80.862 Y60.030 E0.06569
G1 X79.970 Y59.138 E0.10540
G1 X80.756 Y59.138 E0.06569
G1 X80.862 Y59.244 E0.01250
M106 S255

G1 E-3.50000 F2400.00000
G1 Z2.750 F9000.000
G1 X58.693 Y81.307 F9000.000
G1 E3.50000 F2400.00000
G1 F1800
G1 X58.693 Y58.693 E1.04915
G1 X81.307 Y58.693 E1.04915
G1 X81.307 Y81.307 E1.04915
G1 X58.768 Y81.307 E1.04567
G1 X58.246 Y81.754 F9000.000
G1 F1800
G1 X58.246 Y58.246 E1.09057
G1 X81.754 Y58.246 E1.09057
G1 X81.754 Y81.754 E1.09057
G1 X58.321 Y81.754 E1.08709
G1 X57.800 Y82.200 F9000.000
G1 F1800
G1 X57.800 Y57.800 E1.13198
G1 X82.200 Y57.800 E1.13198
G1 X82.200 Y82.200 E1.13198
G1 X57.875 Y82.200 E1.12850
G1 X57.929 Y81.717 F9000.000
G1 X80.813 Y80.908 F9000.000
G1 F1800
G1 X80.908 Y80.813 E0.00630
G1 X80.908 Y80.175 E0.03000
G1 X80.175 Y80.908 E0.04872
G1 X79.536 Y80.908 E0.03000
G1 X80.908 Y79.536 E0.09114
G1 X80.908 Y78.897 E0.03000
G1 X78.897 Y80.908 E0.13357
G1 X78.258 Y80.908 E0.03000
G1 X80.908 Y78.258 E0.17599
G1 X80.908 Y77.619 E0.03000
G1 X77.619 Y80.908 E0.21841
G1 X76.980 Y80.908 E0.03000
G1 X80.908 Y76.980 E0.26084
G1 X80.908 Y76.341 E0.03000
G1 X76.341 Y80.908 E0.30326
G1 X75.702 Y80.908 E0.03000
G1 X80.908 Y75.702 E0.34568
G1 X80.908 Y75.064 E0.03000
G1 X75.064 Y80.908 E0.38811
G1 X74.425 Y80.908 E0.03000
G1 X80.908 Y74.425 E0.43053
G1 X80.908 Y73.786 E0.03000
G1 X73.786 Y80.908 E0.47295
G1 X73.147 Y80.908 E0.03000
G1 X80.908 Y73.147 E0.51538
G1 X80.908 Y72.508 E0.03000
G1 X72.508 Y80.908 E0.55780
G1 X71.869 Y80.908 E0.03000
G1 X80.908 Y71.869 E0.60023
G1 X80.908 Y71.230 E0.03000
G1 X71.230 Y80.908 E0.64265
G1 X70.591 Y80.908 E0.03000
G1 X80.908 Y70.591 E0.68507
G1 X80.908 Y69.953 E0.03000
G1 X69.953 Y80.908 E0.72750
G1 X69.314 Y80.908 E0.03000
G1 X80.908 Y69.314 E0.76992
G1 X80.908 Y68.675 E0.03000
G1 X68.675 Y80.908 E0.81234
G1 X68.036 Y80.908 E0.03000
G1 X80.908 Y68.036 E0.85477
G1 X80.908 Y67.397 E0.03000
G1 X67.397 Y80.908 E0.89719
G1 X66.758 Y80.908 E0.03000
G1 X80.908 Y66.758 E0.93961
G1 X80.908 Y66.119 E0.03000
G1 X66.119 Y80.908 E0.98204
G1 X65.480 Y80.908 E0.03000
G1 X80.908 Y65.480 E1.02446
G1 X80.908 Y64.842 E0.03000
G1 X64.842 Y80.908 E1.06688
G1 X64.203 Y80.908 E0.03000
G1 X80.908 Y64.203 E1.10931
G1 X80.908 Y63.564 E0.03000
G1 X63.564 Y80.908 E1.15173
G1 X62.925 Y80.908 E0.03000
G1 X80.908 Y62.925 E1.19415
G1 X80.908 Y62.286 E0.03000
G1 X62.286 Y80.908 E1.23658
G1 X61.647 Y80.908 E0.03000
G1 X80.908 Y61.647 E1.27900
G1 X80.908 Y61.008 E0.03000
G1 X61.008 Y80.908 E1.32142
G1 X60.369 Y80.908 E0.03000
G1 X80.908 Y60.369 E1.36385
G1 X80.908 Y59.731 E0.03000
G1 X59.731 Y80.908 E1.40627
G1 X59.092 Y80.908 E0.03000
G1 X80.908 Y59.092 E1.44869
G1 X80.269 Y59.092 E0.03000
G1 X59.092 Y80.269 E1.40628
G1 X59.092 Y79.631 E0.03000
G1 X79.631 Y59.092 E1.36385
G1 X78.992 Y59.092 E0.03000
G1 X59.092 Y78.992 E1.32143
G1 X59.092 Y78.353 E0.03000
G1 X78.353 Y59.092 E1.27901
G1 X77.714 Y59.092 E0.03000
G1 X59.092 Y77.714 E1.23658
G1 X59.092 Y77.075 E0.03000
G1 X77.075 Y59.092 E1.19416
G1 X76.436 Y59.092 E0.03000
G1 X59.092 Y76.436 E1.15174
G1 X59.092 Y75.797 E0.03000
G1 X75.797 Y59.092 E1.10931
G1 X75.158 Y59.092 E0.03000
G1 X59.092 Y75.158 E1.06689
G1 X59.092 Y74.520 E0.03000
G1 X74.520 Y59.092 E1.02447
G1 X73.881 Y59.092 E0.03000
G1 X59.092 Y73.881 E0.98204
G1 X59.092 Y73.242 E0.03000
G1 X73.242 Y59.092 E0.93962
G1 X72.603 Y59.092 E0.03000
G1 X59.092 Y72.603 E0.89720
G1 X59.092 Y71.964 E0.03000
G1 X71.964 Y59.092 E0.85477
G1 X71.325 Y59.092 E0.03000
G1 X59.092 Y71.325 E0.81235
G1 X59.092 Y70.686 E0.03000
G1 X70.686 Y59.092 E0.76992
G1 X70.047 Y59.092 E0.03000
G1 X59.092 Y70.047 E0.72750
G1 X59.092 Y69.409 E0.03000
G1 X69.409 Y59.092 E0.68508
G1 X68.770 Y59.092 E0.03000
G1 X59.092 Y68.770 E0.64265
G1 X59.092 Y68.131 E0.03000
G1 X68.131 Y59.092 E0.60023
G1 X67.492 Y59.092 E0.03000
G1 X59.092 Y67.492 E0.55781
G1 X59.092 Y66.853 E0.03000
G1 X66.853 Y59.092 E0.51538
G1 X66.214 Y59.092 E0.03000
G1 X59.092 Y66.214 E0.47296
G1 X59.092 Y65.575 E0.03000
G1 X65.575 Y59.092 E0.43054
G1 X64.936 Y59.092 E0.03000
G1 X59.092 Y64.936 E0.38811
G1 X59.092 Y64.298 E0.03000
G1 X64.298 Y59.092 E0.34569
G1 X63.659 Y59.092 E0.03000
G1 X59.092 Y63.659 E0.30327
G1 X59.092 Y63.020 E0.03000
G1 X63.020 Y59.092 E0.26084
G1 X62.381 Y59.092 E0.03000
G1 X59.092 Y62.381 E0.21842
G1 X59.092 Y61.742 E0.03000
G1 X61.742 Y59.092 E0.17600
G1 X61.103 Y59.092 E0.03000
G1 X59.092 Y61.103 E0.13357
G1 X59.092 Y60.464 E0.03000
G1 X60.464 Y59.092 E0.09115
G1 X59.825 Y59.092 E0.03000
G1 X59.092 Y59.825 E0.04873
G1 X59.092 Y59.187 E0.03000
G1 X59.187 Y59.092 E0.00630
G1 E-3.50000 F2400.00000
G1 Z3.000 F9000.000
G1 X58.693 Y81.307 F9000.000
G1 E3.50000 F2400.00000
G1 F1800
G1 X58.693 Y58.693 E1.04915
G1 X81.307 Y58.693 E1.04915
G1 X81.307 Y81.307 E1.04915
G1 X58.768 Y81.307 E1.04567
G1 X58.246 Y81.754 F9000.000
G1 F1800
G1 X58.246 Y58.246 E1.09057
G1 X81.754 Y58.246 E1.09057
G1 X81.754 Y81.754 E1.09057
G1 X58.321 Y81.754 E1.08709
G1 X57.800 Y82.200 F9000.000
G1 F1800
G1 X57.800 Y57.800 E1.13198
G1 X82.200 Y57.800 E1.13198
G1 X82.200 Y82.200 E1.13198
G1 X57.875 Y82.200 E1.12850
G1 X57.929 Y81.717 F9000.000
G1 X59.092 Y80.813 F9000.000
G1 F1800
G1 X59.187 Y80.908 E0.00630
G1 X59.825 Y80.908 E0.03000
G1 X59.092 Y80.175 E0.04873
G1 X59.092 Y79.536 E0.03000
G1 X60.464 Y80.908 E0.09115
G1 X61.103 Y80.908 E0.03000
G1 X59.092 Y78.897 E0.13357
G1 X59.092 Y78.258 E0.03000
G1 X61.742 Y80.908 E0.17600
G1 X62.381 Y80.908 E0.03000
G1 X59.092 Y77.619 E0.21842
G1 X59.092 Y76.980 E0.03000
G1 X63.020 Y80.908 E0.26084
G1 X63.659 Y80.908 E0.03000
G1 X59.092 Y76.341 E0.30327
G1 X59.092 Y75.702 E0.03000
G1 X64.298 Y80.908 E0.34569
G1 X64.936 Y80.908 E0.03000
G1 X59.092 Y75.064 E0.38811
G1 X59.092 Y74.425 E0.03000
G1 X65.575 Y80.908 E0.43054
G1 X66.214 Y80.908 E0.03000
G1 X59.092 Y73.786 E0.47296
G1 X59.092 Y73.147 E0.03000
G1 X66.853 Y80.908 E0.51538
G1 X67.492 Y80.908 E0.03000
G1 X59.092 Y72.508 E0.55781
G1 X59.092 Y71.869 E0.03000
G1 X68.131 Y80.908 E0.60023
G1 X68.770 Y80.908 E0.03000
G1 X59.092 Y71.230 E0.64265
G1 X59.092 Y70.591 E0.03000
G1 X69.409 Y80.908 E0.68508
G1 X70.047 Y80.908 E0.03000
G1 X59.092 Y69.953 E0.72750
G1 X59.092 Y69.314 E0.03000
G1 X70.686 Y80.908 E0.76992
G1 X71.325 Y80.908 E0.03000
G1 X59.092 Y68.675 E0.81235
G1 X59.092 Y68.036 E0.03000
G1 X71.964 Y80.908 E0.85477
G1 X72.603 Y80.908 E0.03000
G1 X59.092 Y67.397 E0.89720
G1 X59.092 Y66.758 E0.03000
G1 X73.242 Y80.908 E0.93962
G1 X73.881 Y80.908 E0.03000
G1 X59.092 Y66.119 E0.98204
G1 X59.092 Y65.480 E0.03000
G1 X74.520 Y80.908 E1.02447
G1 X75.158 Y80.908 E0.03000
G1 X59.092 Y64.842 E1.06689
G1 X59.092 Y64.203 E0.03000
G1 X75.797 Y80.908 E1.10931
G1 X76.436 Y80.908 E0.03000
G1 X59.092 Y63.564 E1.15174
G1 X59.092 Y62.925 E0.03000
G1 X77.075 Y80.908 E1.19416
G1 X77.714 Y80.908 E0.03000
G1 X59.092 Y62.286 E1.23658
G1 X59.092 Y61.647 E0.03000
G1 X78.353 Y80.908 E1.27901
G1 X78.992 Y80.908 E0.03000
G1 X59.092 Y61.008 E1.32143
G1 X59.092 Y60.369 E0.03000
G1 X79.631 Y80.908 E1.36385
G1 X80.269 Y80.908 E0.03000
G1 X59.092 Y59.731 E1.40628
G1 X59.092 Y59.092 E0.03000
G1 X80.908 Y80.908 E1.44869
G1 X80.908 Y80.269 E0.03000
G1 X59.731 Y59.092 E1.40627
G1 X60.369 Y59.092 E0.03000
G1 X80.908 Y79.631 E1.36385
G1 X80.908 Y78.992 E0.03000
G1 X61.008 Y59.092 E1.32142
G1 X61.647 Y59.092 E0.03000
G1 X80.908 Y78.353 E1.27900
G1 X80.908 Y77.714 E0.03000
G1 X62.286 Y59.092 E1.23658
G1 X62.925 Y59.092 E0.03000
G1 X80.908 Y77.075 E1.19415
G1 X80.908 Y76.436 E0.03000
G1 X63.564 Y59.092 E1.15173
G1 X64.203 Y59.092 E0.03000
G1 X80.908 Y75.797 E1.10931
G1 X80.908 Y75.158 E0.03000
G1 X64.842 Y59.092 E1.06688
G1 X65.480 Y59.092 E0.03000
G1 X80.908 Y74.520 E1.02446
G1 X80.908 Y73.881 E0.03000
G1 X66.119 Y59.092 E0.98204
G1 X66.758 Y59.092 E0.03000
G1 X80.908 Y73.242 E0.93961
G1 X80.908 Y72.603 E0.03000
G1 X67.397 Y59.092 E0.89719
G1 X68.036 Y59.092 E0.03000
G1 X80.908 Y71.964 E0.85477
G1 X80.908 Y71.325 E0.03000
G1 X68.675 Y59.092 E0.81234
G1 X69.314 Y59.092 E0.03000
G1 X80.908 Y70.686 E0.76992
G1 X80.908 Y70.047 E0.03000
G1 X69.953 Y59.092 E0.72750
G1 X70.591 Y59.092 E0.03000
G1 X80.908 Y69.409 E0.68507
G1 X80.908 Y68.770 E0.03000
G1 X71.230 Y59.092 E0.64265
G1 X71.869 Y59.092 E0.03000
G1 X80.908 Y68.131 E0.60023
G1 X80.908 Y67.492 E0.03000
G1 X72.508 Y59.092 E0.55780
G1 X73.147 Y59.092 E0.03000
G1 X80.908 Y66.853 E0.51538
G1 X80.908 Y66.214 E0.03000
G1 X73.786 Y59.092 E0.47295
G1 X74.425 Y59.092 E0.03000
G1 X80.908 Y65.575 E0.43053
G1 X80.908 Y64.936 E0.03000
G1 X75.064 Y59.092 E0.38811
G1 X75.702 Y59.092 E0.03000
G1 X80.908 Y64.298 E0.34568
G1 X80.908 Y63.659 E0.03000
G1 X76.341 Y59.092 E0.30326
G1 X76.980 Y59.092 E0.03000
G1 X80.908 Y63.020 E0.26084
G1 X80.908 Y62.381 E0.03000
G1 X77.619 Y59.092 E0.21841
G1 X78.258 Y59.092 E0.03000
G1 X80.908 Y61.742 E0.17599
G1 X80.908 Y61.103 E0.03000
G1 X78.897 Y59.092 E0.13357
G1 X79.536 Y59.092 E0.03000
G1 X80.908 Y60.464 E0.09114
G1 X80.908 Y59.825 E0.03000
G1 X80.175 Y59.092 E0.04872
G1 X80.813 Y59.092 E0.03000
G1 X80.908 Y59.187 E0.00630
G1 E-3.50000 F2400.00000
M107
; Filament-specific end gcode 
;END gcode for filament

G91				; Set to Relative Positioning so that we can go up a fixed distance from current position which is the end of the print
G1 Z10				; move up 10mm from where we were when the print ended
G90				; Set to Absolute Positioning 
G10 P0 S-273 R-273	; Set tool 0 operating and standby temperatures  to negative 273 C means switched off, and zero all offsetsn
G4 S1			        ; wait for 1 second
G1 X112  Y140		; move to X:115, Y:140, i.e. eject !  updated 2020 03 31 13:37
G4 S1				; wait for 1 second
M140 S-273			;  set bed heater  to switched off
M104 S0 ; set temperature
; filament used = 632.8mm (1.5cm3)
; total filament cost = 0.0

; avoid_crossing_perimeters = 0
; bed_shape = 0x0,140x0,140x140,0x140
; bed_temperature = 0
; before_layer_gcode = 
; between_objects_gcode = 
; bridge_acceleration = 0
; bridge_fan_speed = 100
; brim_connections_width = 0
; brim_width = 0
; complete_objects = 0
; cooling = 1
; default_acceleration = 0
; disable_fan_first_layers = 2
; duplicate_distance = 6
; end_filament_gcode = "; Filament-specific end gcode \n;END gcode for filament\n"
; end_gcode = G91				; Set to Relative Positioning so that we can go up a fixed distance from current position which is the end of the print\nG1 Z10				; move up 10mm from where we were when the print ended\nG90				; Set to Absolute Positioning \nG10 P0 S-273 R-273	; Set tool 0 operating and standby temperatures  to negative 273 C means switched off, and zero all offsetsn\nG4 S1			        ; wait for 1 second\nG1 X112  Y140		; move to X:115, Y:140, i.e. eject !  updated 2020 03 31 13:37\nG4 S1				; wait for 1 second\nM140 S-273			;  set bed heater  to switched off
; extruder_clearance_height = 20
; extruder_clearance_radius = 20
; extruder_offset = 0x0
; extrusion_axis = E
; extrusion_multiplier = 1
; fan_always_on = 1
; fan_below_layer_time = 60
; filament_colour = #FFFFFF
; filament_cost = 0
; filament_density = 0
; filament_diameter = 1.75
; filament_max_volumetric_speed = 0
; filament_notes = ""
; first_layer_acceleration = 0
; first_layer_bed_temperature = 0
; first_layer_extrusion_width = 0.8
; first_layer_speed = 50%
; first_layer_temperature = 215
; gcode_arcs = 0
; gcode_comments = 0
; gcode_flavor = reprap
; has_heatbed = 1
; infill_acceleration = 0
; infill_first = 0
; interior_brim_width = 0
; layer_gcode = 
; max_fan_speed = 100
; max_layer_height = 0.3
; max_print_speed = 80
; max_volumetric_speed = 0
; min_fan_speed = 100
; min_layer_height = 0.15
; min_print_speed = 10
; min_skirt_length = 0
; notes = 
; nozzle_diameter = 0.5
; only_retract_when_crossing_perimeters = 1
; ooze_prevention = 0
; output_filename_format = [input_filename_base].gcode
; perimeter_acceleration = 0
; post_process = 
; pressure_advance = 0
; printer_notes = 
; resolution = 0
; retract_before_travel = 2
; retract_layer_change = 1
; retract_length = 3.5
; retract_length_toolchange = 10
; retract_lift = 0
; retract_lift_above = 0
; retract_lift_below = 0
; retract_restart_extra = 0
; retract_restart_extra_toolchange = 0
; retract_speed = 40
; skirt_distance = 5
; skirt_height = 1
; skirts = 2
; slowdown_below_layer_time = 20
; spiral_vase = 0
; standby_temperature_delta = -5
; start_filament_gcode = "; Filament gcode\n"
; start_gcode = T0\n
; temperature = 215
; threads = 4
; toolchange_gcode = 
; travel_speed = 150
; use_firmware_retraction = 0
; use_relative_e_distances = 1
; use_set_and_wait_bed = 0
; use_set_and_wait_extruder = 0
; use_volumetric_e = 0
; vibration_limit = 0
; wipe = 0
; z_offset = 0
; z_steps_per_mm = 0
; adaptive_slicing = 0
; adaptive_slicing_quality = 75%
; dont_support_bridges = 1
; extrusion_width = 0.5
; first_layer_height = 0.25
; infill_only_where_needed = 0
; interface_shells = 0
; layer_height = 0.25
; match_horizontal_surfaces = 0
; raft_layers = 0
; regions_overlap = 0
; seam_position = aligned
; sequential_print_priority = 0
; support_material = 0
; support_material_angle = 0
; support_material_buildplate_only = 1
; support_material_contact_distance = 0.2
; support_material_enforce_layers = 0
; support_material_extruder = 1
; support_material_extrusion_width = 0.5
; support_material_interface_extruder = 1
; support_material_interface_extrusion_width = 0
; support_material_interface_layers = 3
; support_material_interface_spacing = 0
; support_material_interface_speed = 100%
; support_material_max_layers = 0
; support_material_pattern = pillars
; support_material_spacing = 2.5
; support_material_speed = 40
; support_material_threshold = 60%
; xy_size_compensation = -0.05
; bottom_infill_pattern = rectilinear
; bottom_solid_layers = 3
; bridge_flow_ratio = 1
; bridge_speed = 40
; external_perimeter_extrusion_width = 0.5
; external_perimeter_speed = 30
; external_perimeters_first = 0
; extra_perimeters = 1
; fill_angle = 45
; fill_density = 20%
; fill_gaps = 1
; fill_pattern = rectilinear
; gap_fill_speed = 20
; infill_every_layers = 1
; infill_extruder = 1
; infill_extrusion_width = 0.5
; infill_overlap = 15%
; infill_speed = 40
; overhangs = 1
; perimeter_extruder = 1
; perimeter_extrusion_width = 0.5
; perimeter_speed = 30
; perimeters = 3
; small_perimeter_speed = 30
; solid_infill_below_area = 0
; solid_infill_every_layers = 0
; solid_infill_extruder = 1
; solid_infill_extrusion_width = 0.5
; solid_infill_speed = 30
; thin_walls = 1
; top_infill_extrusion_width = 0.5
; top_infill_pattern = rectilinear
; top_solid_infill_speed = 30
; top_solid_layers = 3
