  0
SECTION
  2
BLOCKS
  0
ENDSEC
  0
SECTION
  2
ENTITIES
  0
LINE
  8
0
 10
10.4728
 20
-11.2332
 11
10.8951
 21
-11.2289
  0
LINE
  8
0
 10
10.8951
 20
-11.2289
 11
11.3463
 21
-11.2216
  0
LINE
  8
0
 10
11.3463
 20
-11.2216
 11
11.9362
 21
-11.2051
  0
LINE
  8
0
 10
11.9362
 20
-11.2051
 11
12.2186
 21
-11.194
  0
LINE
  8
0
 10
12.2186
 20
-11.194
 11
12.394
 21
-11.186
  0
LINE
  8
0
 10
12.394
 20
-11.186
 11
12.8219
 21
-11.1616
  0
LINE
  8
0
 10
12.8219
 20
-11.1616
 11
13.0481
 21
-11.1455
  0
LINE
  8
0
 10
13.0481
 20
-11.1455
 11
13.2369
 21
-11.1308
  0
LINE
  8
0
 10
13.2369
 20
-11.1308
 11
13.6559
 21
-11.0918
  0
LINE
  8
0
 10
13.6559
 20
-11.0918
 11
13.8377
 21
-11.0735
  0
LINE
  8
0
 10
13.8377
 20
-11.0735
 11
14.0771
 21
-11.0449
  0
LINE
  8
0
 10
14.0771
 20
-11.0449
 11
14.4855
 21
-10.9916
  0
LINE
  8
0
 10
14.4855
 20
-10.9916
 11
14.5891
 21
-10.9769
  0
LINE
  8
0
 10
14.5891
 20
-10.9769
 11
14.8677
 21
-10.9333
  0
LINE
  8
0
 10
14.8677
 20
-10.9333
 11
15.3004
 21
-10.8551
  0
LINE
  8
0
 10
15.3004
 20
-10.8551
 11
15.5836
 21
-10.7978
  0
LINE
  8
0
 10
15.5836
 20
-10.7978
 11
15.9763
 21
-10.7077
  0
LINE
  8
0
 10
15.9763
 20
-10.7077
 11
16.2916
 21
-10.6272
  0
LINE
  8
0
 10
16.2916
 20
-10.6272
 11
16.6115
 21
-10.5372
  0
LINE
  8
0
 10
16.6115
 20
-10.5372
 11
16.9832
 21
-10.4209
  0
LINE
  8
0
 10
16.9832
 20
-10.4209
 11
17.2175
 21
-10.3418
  0
LINE
  8
0
 10
17.2175
 20
-10.3418
 11
17.6568
 21
-10.1774
  0
LINE
  8
0
 10
17.6568
 20
-10.1774
 11
17.8092
 21
-10.1158
  0
LINE
  8
0
 10
17.8092
 20
-10.1158
 11
18.3118
 21
-9.89351
  0
LINE
  8
0
 10
18.3118
 20
-9.89351
 11
18.381
 21
-9.85997
  0
LINE
  8
0
 10
18.381
 20
-9.85997
 11
18.9119
 21
-9.58638
  0
LINE
  8
0
 10
18.9119
 20
-9.58638
 11
19.4727
 21
-9.25015
  0
LINE
  8
0
 10
19.4727
 20
-9.25015
 11
19.4749
 21
-9.24872
  0
LINE
  8
0
 10
19.4749
 20
-9.24872
 11
19.9894
 21
-8.8949
  0
LINE
  8
0
 10
19.9894
 20
-8.8949
 11
20.0154
 21
-8.87558
  0
LINE
  8
0
 10
20.0154
 20
-8.87558
 11
20.475
 21
-8.51302
  0
LINE
  8
0
 10
20.475
 20
-8.51302
 11
20.4989
 21
-8.49384
  0
LINE
  8
0
 10
20.4989
 20
-8.49384
 11
20.9283
 21
-8.10776
  0
LINE
  8
0
 10
20.9283
 20
-8.10776
 11
20.951
 21
-8.08633
  0
LINE
  8
0
 10
20.951
 20
-8.08633
 11
21.3548
 21
-7.67532
  0
LINE
  8
0
 10
21.3548
 20
-7.67532
 11
21.3748
 21
-7.65427
  0
LINE
  8
0
 10
21.3748
 20
-7.65427
 11
21.7541
 21
-7.21683
  0
LINE
  8
0
 10
21.7541
 20
-7.21683
 11
22.1057
 21
-6.75995
  0
LINE
  8
0
 10
22.1057
 20
-6.75995
 11
22.1334
 21
-6.72107
  0
LINE
  8
0
 10
22.1334
 20
-6.72107
 11
22.4324
 21
-6.28041
  0
LINE
  8
0
 10
22.4324
 20
-6.28041
 11
22.4822
 21
-6.20158
  0
LINE
  8
0
 10
22.4822
 20
-6.20158
 11
22.7357
 21
-5.77609
  0
LINE
  8
0
 10
22.7357
 20
-5.77609
 11
22.8026
 21
-5.65503
  0
LINE
  8
0
 10
22.8026
 20
-5.65503
 11
23.0094
 21
-5.25711
  0
LINE
  8
0
 10
23.0094
 20
-5.25711
 11
23.0933
 21
-5.08255
  0
LINE
  8
0
 10
23.0933
 20
-5.08255
 11
23.2542
 21
-4.72429
  0
LINE
  8
0
 10
23.2542
 20
-4.72429
 11
23.3533
 21
-4.48474
  0
LINE
  8
0
 10
23.3533
 20
-4.48474
 11
23.4705
 21
-4.17912
  0
LINE
  8
0
 10
23.4705
 20
-4.17912
 11
23.5811
 21
-3.86356
  0
LINE
  8
0
 10
23.5811
 20
-3.86356
 11
23.6579
 21
-3.62535
  0
LINE
  8
0
 10
23.6579
 20
-3.62535
 11
23.7752
 21
-3.22156
  0
LINE
  8
0
 10
23.7752
 20
-3.22156
 11
23.8198
 21
-3.05258
  0
LINE
  8
0
 10
23.8198
 20
-3.05258
 11
23.9345
 21
-2.56044
  0
LINE
  8
0
 10
23.9345
 20
-2.56044
 11
23.9544
 21
-2.46658
  0
LINE
  8
0
 10
23.9544
 20
-2.46658
 11
24.0591
 21
-1.8772
  0
LINE
  8
0
 10
24.0591
 20
-1.8772
 11
24.1369
 21
-1.25827
  0
LINE
  8
0
 10
24.1369
 20
-1.25827
 11
24.1428
 21
-1.196
  0
LINE
  8
0
 10
24.1428
 20
-1.196
 11
24.1844
 21
-0.629059
  0
LINE
  8
0
 10
24.1844
 20
-0.629059
 11
24.19
 21
-0.499863
  0
LINE
  8
0
 10
24.19
 20
-0.499863
 11
24.2
 21
0
  0
LINE
  8
0
 10
24.2
 20
0
 11
24.1984
 21
0.198395
  0
LINE
  8
0
 10
24.1984
 20
0.198395
 11
24.1814
 21
0.687027
  0
LINE
  8
0
 10
24.1814
 20
0.687027
 11
24.1682
 21
0.892319
  0
LINE
  8
0
 10
24.1682
 20
0.892319
 11
24.1245
 21
1.37489
  0
LINE
  8
0
 10
24.1245
 20
1.37489
 11
24.0999
 21
1.58028
  0
LINE
  8
0
 10
24.0999
 20
1.58028
 11
24.0335
 21
2.03896
  0
LINE
  8
0
 10
24.0335
 20
2.03896
 11
23.9949
 21
2.25526
  0
LINE
  8
0
 10
23.9949
 20
2.25526
 11
23.9094
 21
2.6779
  0
LINE
  8
0
 10
23.9094
 20
2.6779
 11
23.8546
 21
2.91278
  0
LINE
  8
0
 10
23.8546
 20
2.91278
 11
23.7504
 21
3.31178
  0
LINE
  8
0
 10
23.7504
 20
3.31178
 11
23.6802
 21
3.55258
  0
LINE
  8
0
 10
23.6802
 20
3.55258
 11
23.5634
 21
3.91626
  0
LINE
  8
0
 10
23.5634
 20
3.91626
 11
23.4723
 21
4.17426
  0
LINE
  8
0
 10
23.4723
 20
4.17426
 11
23.3432
 21
4.5098
  0
LINE
  8
0
 10
23.3432
 20
4.5098
 11
23.2322
 21
4.77524
  0
LINE
  8
0
 10
23.2322
 20
4.77524
 11
23.0921
 21
5.08557
  0
LINE
  8
0
 10
23.0921
 20
5.08557
 11
22.9607
 21
5.35426
  0
LINE
  8
0
 10
22.9607
 20
5.35426
 11
22.8102
 21
5.64151
  0
LINE
  8
0
 10
22.8102
 20
5.64151
 11
22.6593
 21
5.90889
  0
LINE
  8
0
 10
22.6593
 20
5.90889
 11
22.4956
 21
6.18074
  0
LINE
  8
0
 10
22.4956
 20
6.18074
 11
22.3287
 21
6.43872
  0
LINE
  8
0
 10
22.3287
 20
6.43872
 11
22.1591
 21
6.68544
  0
LINE
  8
0
 10
22.1591
 20
6.68544
 11
21.9664
 21
6.94722
  0
LINE
  8
0
 10
21.9664
 20
6.94722
 11
21.7935
 21
7.16829
  0
LINE
  8
0
 10
21.7935
 20
7.16829
 11
21.5735
 21
7.43123
  0
LINE
  8
0
 10
21.5735
 20
7.43123
 11
21.394
 21
7.63297
  0
LINE
  8
0
 10
21.394
 20
7.63297
 11
21.1481
 21
7.89165
  0
LINE
  8
0
 10
21.1481
 20
7.89165
 11
20.9617
 21
8.07643
  0
LINE
  8
0
 10
20.9617
 20
8.07643
 11
20.6873
 21
8.32962
  0
LINE
  8
0
 10
20.6873
 20
8.32962
 11
20.5004
 21
8.49231
  0
LINE
  8
0
 10
20.5004
 20
8.49231
 11
20.192
 21
8.74161
  0
LINE
  8
0
 10
20.192
 20
8.74161
 11
19.9911
 21
8.89348
  0
LINE
  8
0
 10
19.9911
 20
8.89348
 11
19.6586
 21
9.12788
  0
LINE
  8
0
 10
19.6586
 20
9.12788
 11
19.457
 21
9.26096
  0
LINE
  8
0
 10
19.457
 20
9.26096
 11
19.0792
 21
9.49023
  0
LINE
  8
0
 10
19.0792
 20
9.49023
 11
18.8777
 21
9.60434
  0
LINE
  8
0
 10
18.8777
 20
9.60434
 11
18.464
 21
9.81946
  0
LINE
  8
0
 10
18.464
 20
9.81946
 11
18.2535
 21
9.92131
  0
LINE
  8
0
 10
18.2535
 20
9.92131
 11
17.8372
 21
10.1042
  0
LINE
  8
0
 10
17.8372
 20
10.1042
 11
17.6081
 21
10.1967
  0
LINE
  8
0
 10
17.6081
 20
10.1967
 11
17.2068
 21
10.3456
  0
LINE
  8
0
 10
17.2068
 20
10.3456
 11
16.9424
 21
10.4342
  0
LINE
  8
0
 10
16.9424
 20
10.4342
 11
16.5435
 21
10.557
  0
LINE
  8
0
 10
16.5435
 20
10.557
 11
16.2605
 21
10.6358
  0
LINE
  8
0
 10
16.2605
 20
10.6358
 11
15.8266
 21
10.7433
  0
LINE
  8
0
 10
15.8266
 20
10.7433
 11
15.5469
 21
10.8053
  0
LINE
  8
0
 10
15.5469
 20
10.8053
 11
15.0652
 21
10.899
  0
LINE
  8
0
 10
15.0652
 20
10.899
 11
14.8041
 21
10.9435
  0
LINE
  8
0
 10
14.8041
 20
10.9435
 11
14.255
 21
11.0235
  0
LINE
  8
0
 10
14.255
 20
11.0235
 11
14.0455
 21
11.0494
  0
LINE
  8
0
 10
14.0455
 20
11.0494
 11
13.6324
 21
11.0942
  0
LINE
  8
0
 10
13.6324
 20
11.0942
 11
13.3978
 21
11.117
  0
LINE
  8
0
 10
13.3978
 20
11.117
 11
13.2045
 21
11.133
  0
LINE
  8
0
 10
13.2045
 20
11.133
 11
12.9513
 21
11.1525
  0
LINE
  8
0
 10
12.9513
 20
11.1525
 11
12.7784
 21
11.1642
  0
LINE
  8
0
 10
12.7784
 20
11.1642
 11
12.4922
 21
11.1808
  0
LINE
  8
0
 10
12.4922
 20
11.1808
 11
12.3546
 21
11.1879
  0
LINE
  8
0
 10
12.3546
 20
11.1879
 11
12.0201
 21
11.2022
  0
LINE
  8
0
 10
12.0201
 20
11.2022
 11
11.9139
 21
11.206
  0
LINE
  8
0
 10
11.9139
 20
11.206
 11
11.5357
 21
11.2173
  0
LINE
  8
0
 10
11.5357
 20
11.2173
 11
11.0397
 21
11.227
  0
LINE
  8
0
 10
11.0397
 20
11.227
 11
10.5326
 21
11.2324
  0
LINE
  8
0
 10
10.5326
 20
11.2324
 11
9.97899
 21
11.2354
  0
LINE
  8
0
 10
9.97899
 20
11.2354
 11
-10.9818
 21
11.2359
  0
LINE
  8
0
 10
-10.9818
 20
11.2359
 11
-11.4728
 21
11.2332
  0
LINE
  8
0
 10
-11.4728
 20
11.2332
 11
-12.0397
 21
11.227
  0
LINE
  8
0
 10
-12.0397
 20
11.227
 11
-12.5357
 21
11.2173
  0
LINE
  8
0
 10
-12.5357
 20
11.2173
 11
-12.9362
 21
11.2051
  0
LINE
  8
0
 10
-12.9362
 20
11.2051
 11
-13.0201
 21
11.2022
  0
LINE
  8
0
 10
-13.0201
 20
11.2022
 11
-13.394
 21
11.186
  0
LINE
  8
0
 10
-13.394
 20
11.186
 11
-13.4922
 21
11.1808
  0
LINE
  8
0
 10
-13.4922
 20
11.1808
 11
-13.8219
 21
11.1616
  0
LINE
  8
0
 10
-13.8219
 20
11.1616
 11
-13.9513
 21
11.1525
  0
LINE
  8
0
 10
-13.9513
 20
11.1525
 11
-14.2369
 21
11.1308
  0
LINE
  8
0
 10
-14.2369
 20
11.1308
 11
-14.3978
 21
11.117
  0
LINE
  8
0
 10
-14.3978
 20
11.117
 11
-14.6559
 21
11.0918
  0
LINE
  8
0
 10
-14.6559
 20
11.0918
 11
-15.0771
 21
11.0449
  0
LINE
  8
0
 10
-15.0771
 20
11.0449
 11
-15.255
 21
11.0235
  0
LINE
  8
0
 10
-15.255
 20
11.0235
 11
-15.4855
 21
10.9916
  0
LINE
  8
0
 10
-15.4855
 20
10.9916
 11
-15.8677
 21
10.9333
  0
LINE
  8
0
 10
-15.8677
 20
10.9333
 11
-16.0652
 21
10.899
  0
LINE
  8
0
 10
-16.0652
 20
10.899
 11
-16.5836
 21
10.7978
  0
LINE
  8
0
 10
-16.5836
 20
10.7978
 11
-16.8266
 21
10.7433
  0
LINE
  8
0
 10
-16.8266
 20
10.7433
 11
-17.2916
 21
10.6272
  0
LINE
  8
0
 10
-17.2916
 20
10.6272
 11
-17.5435
 21
10.557
  0
LINE
  8
0
 10
-17.5435
 20
10.557
 11
-17.9832
 21
10.4209
  0
LINE
  8
0
 10
-17.9832
 20
10.4209
 11
-18.2068
 21
10.3456
  0
LINE
  8
0
 10
-18.2068
 20
10.3456
 11
-18.6568
 21
10.1774
  0
LINE
  8
0
 10
-18.6568
 20
10.1774
 11
-18.8372
 21
10.1042
  0
LINE
  8
0
 10
-18.8372
 20
10.1042
 11
-19.3118
 21
9.89351
  0
LINE
  8
0
 10
-19.3118
 20
9.89351
 11
-19.464
 21
9.81946
  0
LINE
  8
0
 10
-19.464
 20
9.81946
 11
-19.9119
 21
9.58638
  0
LINE
  8
0
 10
-19.9119
 20
9.58638
 11
-20.0792
 21
9.49023
  0
LINE
  8
0
 10
-20.0792
 20
9.49023
 11
-20.4749
 21
9.24872
  0
LINE
  8
0
 10
-20.4749
 20
9.24872
 11
-20.6586
 21
9.12788
  0
LINE
  8
0
 10
-20.6586
 20
9.12788
 11
-21.0154
 21
8.87558
  0
LINE
  8
0
 10
-21.0154
 20
8.87558
 11
-21.192
 21
8.74161
  0
LINE
  8
0
 10
-21.192
 20
8.74161
 11
-21.4989
 21
8.49384
  0
LINE
  8
0
 10
-21.4989
 20
8.49384
 11
-21.6873
 21
8.32962
  0
LINE
  8
0
 10
-21.6873
 20
8.32962
 11
-21.951
 21
8.08633
  0
LINE
  8
0
 10
-21.951
 20
8.08633
 11
-22.1481
 21
7.89165
  0
LINE
  8
0
 10
-22.1481
 20
7.89165
 11
-22.3748
 21
7.65427
  0
LINE
  8
0
 10
-22.3748
 20
7.65427
 11
-22.5735
 21
7.43123
  0
LINE
  8
0
 10
-22.5735
 20
7.43123
 11
-22.7541
 21
7.21683
  0
LINE
  8
0
 10
-22.7541
 20
7.21683
 11
-22.9664
 21
6.94722
  0
LINE
  8
0
 10
-22.9664
 20
6.94722
 11
-23.1057
 21
6.75995
  0
LINE
  8
0
 10
-23.1057
 20
6.75995
 11
-23.3287
 21
6.43872
  0
LINE
  8
0
 10
-23.3287
 20
6.43872
 11
-23.4324
 21
6.28041
  0
LINE
  8
0
 10
-23.4324
 20
6.28041
 11
-23.6593
 21
5.90889
  0
LINE
  8
0
 10
-23.6593
 20
5.90889
 11
-23.7357
 21
5.77609
  0
LINE
  8
0
 10
-23.7357
 20
5.77609
 11
-23.9607
 21
5.35426
  0
LINE
  8
0
 10
-23.9607
 20
5.35426
 11
-24.0094
 21
5.25711
  0
LINE
  8
0
 10
-24.0094
 20
5.25711
 11
-24.2322
 21
4.77524
  0
LINE
  8
0
 10
-24.2322
 20
4.77524
 11
-24.2542
 21
4.72429
  0
LINE
  8
0
 10
-24.2542
 20
4.72429
 11
-24.4705
 21
4.17912
  0
LINE
  8
0
 10
-24.4705
 20
4.17912
 11
-24.4723
 21
4.17426
  0
LINE
  8
0
 10
-24.4723
 20
4.17426
 11
-24.6579
 21
3.62535
  0
LINE
  8
0
 10
-24.6579
 20
3.62535
 11
-24.6802
 21
3.55258
  0
LINE
  8
0
 10
-24.6802
 20
3.55258
 11
-24.8198
 21
3.05258
  0
LINE
  8
0
 10
-24.8198
 20
3.05258
 11
-24.8546
 21
2.91278
  0
LINE
  8
0
 10
-24.8546
 20
2.91278
 11
-24.9544
 21
2.46658
  0
LINE
  8
0
 10
-24.9544
 20
2.46658
 11
-24.9949
 21
2.25526
  0
LINE
  8
0
 10
-24.9949
 20
2.25526
 11
-25.0591
 21
1.8772
  0
LINE
  8
0
 10
-25.0591
 20
1.8772
 11
-25.0999
 21
1.58028
  0
LINE
  8
0
 10
-25.0999
 20
1.58028
 11
-25.1369
 21
1.25827
  0
LINE
  8
0
 10
-25.1369
 20
1.25827
 11
-25.1682
 21
0.892319
  0
LINE
  8
0
 10
-25.1682
 20
0.892319
 11
-25.1844
 21
0.629059
  0
LINE
  8
0
 10
-25.1844
 20
0.629059
 11
-25.1984
 21
0.198395
  0
LINE
  8
0
 10
-25.1984
 20
0.198395
 11
-25.2
 21
0
  0
LINE
  8
0
 10
-25.2
 20
0
 11
-25.19
 21
-0.499863
  0
LINE
  8
0
 10
-25.19
 20
-0.499863
 11
-25.1814
 21
-0.687027
  0
LINE
  8
0
 10
-25.1814
 20
-0.687027
 11
-25.1428
 21
-1.196
  0
LINE
  8
0
 10
-25.1428
 20
-1.196
 11
-25.1245
 21
-1.37489
  0
LINE
  8
0
 10
-25.1245
 20
-1.37489
 11
-25.0575
 21
-1.88336
  0
LINE
  8
0
 10
-25.0575
 20
-1.88336
 11
-25.0335
 21
-2.03896
  0
LINE
  8
0
 10
-25.0335
 20
-2.03896
 11
-24.9345
 21
-2.56044
  0
LINE
  8
0
 10
-24.9345
 20
-2.56044
 11
-24.9094
 21
-2.6779
  0
LINE
  8
0
 10
-24.9094
 20
-2.6779
 11
-24.7752
 21
-3.22156
  0
LINE
  8
0
 10
-24.7752
 20
-3.22156
 11
-24.7504
 21
-3.31178
  0
LINE
  8
0
 10
-24.7504
 20
-3.31178
 11
-24.5811
 21
-3.86356
  0
LINE
  8
0
 10
-24.5811
 20
-3.86356
 11
-24.5634
 21
-3.91626
  0
LINE
  8
0
 10
-24.5634
 20
-3.91626
 11
-24.3533
 21
-4.48474
  0
LINE
  8
0
 10
-24.3533
 20
-4.48474
 11
-24.3432
 21
-4.5098
  0
LINE
  8
0
 10
-24.3432
 20
-4.5098
 11
-24.0921
 21
-5.08557
  0
LINE
  8
0
 10
-24.0921
 20
-5.08557
 11
-23.8102
 21
-5.64151
  0
LINE
  8
0
 10
-23.8102
 20
-5.64151
 11
-23.8026
 21
-5.65503
  0
LINE
  8
0
 10
-23.8026
 20
-5.65503
 11
-23.4956
 21
-6.18074
  0
LINE
  8
0
 10
-23.4956
 20
-6.18074
 11
-23.4822
 21
-6.20158
  0
LINE
  8
0
 10
-23.4822
 20
-6.20158
 11
-23.1591
 21
-6.68544
  0
LINE
  8
0
 10
-23.1591
 20
-6.68544
 11
-23.1334
 21
-6.72107
  0
LINE
  8
0
 10
-23.1334
 20
-6.72107
 11
-22.7935
 21
-7.16829
  0
LINE
  8
0
 10
-22.7935
 20
-7.16829
 11
-22.7575
 21
-7.21231
  0
LINE
  8
0
 10
-22.7575
 20
-7.21231
 11
-22.394
 21
-7.63297
  0
LINE
  8
0
 10
-22.394
 20
-7.63297
 11
-22.3548
 21
-7.67532
  0
LINE
  8
0
 10
-22.3548
 20
-7.67532
 11
-21.9617
 21
-8.07643
  0
LINE
  8
0
 10
-21.9617
 20
-8.07643
 11
-21.9283
 21
-8.10776
  0
LINE
  8
0
 10
-21.9283
 20
-8.10776
 11
-21.5004
 21
-8.49231
  0
LINE
  8
0
 10
-21.5004
 20
-8.49231
 11
-21.475
 21
-8.51302
  0
LINE
  8
0
 10
-21.475
 20
-8.51302
 11
-20.9893
 21
-8.8949
  0
LINE
  8
0
 10
-20.9893
 20
-8.8949
 11
-20.457
 21
-9.26096
  0
LINE
  8
0
 10
-20.457
 20
-9.26096
 11
-19.9345
 21
-9.57245
  0
LINE
  8
0
 10
-19.9345
 20
-9.57245
 11
-19.8777
 21
-9.60434
  0
LINE
  8
0
 10
-19.8777
 20
-9.60434
 11
-19.381
 21
-9.85997
  0
LINE
  8
0
 10
-19.381
 20
-9.85997
 11
-19.2535
 21
-9.92131
  0
LINE
  8
0
 10
-19.2535
 20
-9.92131
 11
-18.8092
 21
-10.1158
  0
LINE
  8
0
 10
-18.8092
 20
-10.1158
 11
-18.6081
 21
-10.1967
  0
LINE
  8
0
 10
-18.6081
 20
-10.1967
 11
-18.2175
 21
-10.3418
  0
LINE
  8
0
 10
-18.2175
 20
-10.3418
 11
-17.9424
 21
-10.4342
  0
LINE
  8
0
 10
-17.9424
 20
-10.4342
 11
-17.6115
 21
-10.5372
  0
LINE
  8
0
 10
-17.6115
 20
-10.5372
 11
-17.2605
 21
-10.6358
  0
LINE
  8
0
 10
-17.2605
 20
-10.6358
 11
-16.9763
 21
-10.7077
  0
LINE
  8
0
 10
-16.9763
 20
-10.7077
 11
-16.5469
 21
-10.8053
  0
LINE
  8
0
 10
-16.5469
 20
-10.8053
 11
-16.3004
 21
-10.8551
  0
LINE
  8
0
 10
-16.3004
 20
-10.8551
 11
-15.8041
 21
-10.9435
  0
LINE
  8
0
 10
-15.8041
 20
-10.9435
 11
-15.5891
 21
-10.9769
  0
LINE
  8
0
 10
-15.5891
 20
-10.9769
 11
-15.0455
 21
-11.0494
  0
LINE
  8
0
 10
-15.0455
 20
-11.0494
 11
-14.8377
 21
-11.0735
  0
LINE
  8
0
 10
-14.8377
 20
-11.0735
 11
-14.6324
 21
-11.0942
  0
LINE
  8
0
 10
-14.6324
 20
-11.0942
 11
-14.2045
 21
-11.133
  0
LINE
  8
0
 10
-14.2045
 20
-11.133
 11
-14.0481
 21
-11.1455
  0
LINE
  8
0
 10
-14.0481
 20
-11.1455
 11
-13.7784
 21
-11.1642
  0
LINE
  8
0
 10
-13.7784
 20
-11.1642
 11
-13.3546
 21
-11.1879
  0
LINE
  8
0
 10
-13.3546
 20
-11.1879
 11
-13.2186
 21
-11.194
  0
LINE
  8
0
 10
-13.2186
 20
-11.194
 11
-12.9139
 21
-11.206
  0
LINE
  8
0
 10
-12.9139
 20
-11.206
 11
-12.3463
 21
-11.2216
  0
LINE
  8
0
 10
-12.3463
 20
-11.2216
 11
-11.8951
 21
-11.2289
  0
LINE
  8
0
 10
-11.8951
 20
-11.2289
 11
-11.4347
 21
-11.233
  0
LINE
  8
0
 10
-11.4347
 20
-11.233
 11
-10.979
 21
-11.2354
  0
LINE
  8
0
 10
-10.979
 20
-11.2354
 11
9.98175
 21
-11.2359
  0
LINE
  8
0
 10
9.98175
 20
-11.2359
 11
10.4728
 21
-11.2332
  0
ENDSEC
  0
SECTION
  2
OBJECTS
  0
DICTIONARY
  0
ENDSEC
  0
EOF
